<svg width="28" height="29" viewBox="0 0 28 29" fill="none" xmlns="http://www.w3.org/2000/svg">
<g clip-path="url(#clip0_9264_5851)">
<path d="M23.1398 14.4991V17.6559H15.4961V17.6696C14.6369 17.6692 13.8129 17.3367 13.2051 16.7452C12.5972 16.1536 12.2551 15.3513 12.2539 14.5143V11.3545H19.8961C20.7537 11.3545 21.5764 11.6853 22.1843 12.2746C22.7921 12.8639 23.1357 13.6637 23.1398 14.4991Z" fill="url(#paint0_linear_9264_5851)"/>
<path d="M28 0C27.9997 1.69422 27.309 3.31904 26.0797 4.5175C24.8502 5.71671 23.1821 6.3912 21.4422 6.39269H14.8797C14.0003 6.45489 13.1368 6.65375 12.3219 6.98173C5.03281 8.58143 2.03125 12.8767 0.135937 16.4384C0.0458365 15.7957 0.000420497 15.1479 0 14.4992C0 6.5449 6.71875 0 14.8844 0H28Z" fill="url(#paint1_linear_9264_5851)"/>
<path d="M28.0008 29.0004H14.8852C7.39609 29.0004 1.12422 23.4935 0.136719 16.4387C2.03203 12.8771 5.03359 8.5818 12.3273 6.97754C10.59 7.67569 9.14515 8.92427 8.22646 10.5214C7.30776 12.1185 6.96892 13.9708 7.26473 15.7787C7.56053 17.5866 8.47368 19.2445 9.85653 20.4843C11.2394 21.7241 13.0111 22.4733 14.8852 22.6107H21.4477C23.1881 22.6107 24.8573 23.2842 26.088 24.4831C27.3188 25.682 28.0102 27.308 28.0102 29.0034L28.0008 29.0004Z" fill="url(#paint2_linear_9264_5851)"/>
</g>
<defs>
<linearGradient id="paint0_linear_9264_5851" x1="11.8117" y1="12.7776" x2="23.526" y2="16.4183" gradientUnits="userSpaceOnUse">
<stop stop-color="#239CD9"/>
<stop offset="1" stop-color="#86D1F6"/>
</linearGradient>
<linearGradient id="paint1_linear_9264_5851" x1="-3.10938" y1="10.5221" x2="26.9835" y2="3.03131" gradientUnits="userSpaceOnUse">
<stop stop-color="#8ED5F8"/>
<stop offset="1" stop-color="#239CD9"/>
</linearGradient>
<linearGradient id="paint2_linear_9264_5851" x1="3.34297" y1="12.6153" x2="25.8514" y2="28.6291" gradientUnits="userSpaceOnUse">
<stop stop-color="#229BD8"/>
<stop offset="1" stop-color="#8DD4F7"/>
</linearGradient>
<clipPath id="clip0_9264_5851">
<rect width="28" height="29" fill="white"/>
</clipPath>
</defs>
</svg>
