
<svg width="734" height="337" viewBox="0 0 734 337" fill="none" xmlns="http://www.w3.org/2000/svg">
<g filter="url(#filter0_d_13021_38837)">
<rect x="8" y="4" width="718" height="321" rx="12" fill="url(#paint0_linear_13021_38837)"/>
</g>
<path d="M73.392 133.72C83.952 133.72 88.464 126.52 89.568 121.816L82.32 119.752C81.648 122.2 79.296 126.136 73.392 126.136C68.304 126.136 63.6 122.44 63.6 116.056C63.6 108.904 68.736 105.64 73.296 105.64C79.296 105.64 81.456 109.624 81.984 111.976L89.136 109.72C88.032 104.824 83.52 98.248 73.296 98.248C63.792 98.248 55.728 105.448 55.728 116.056C55.728 126.664 63.6 133.72 73.392 133.72ZM103.488 127C100.752 127 98.1121 125.032 98.1121 121.048C98.1121 117.016 100.752 115.144 103.488 115.144C106.272 115.144 108.864 117.016 108.864 121.048C108.864 125.08 106.272 127 103.488 127ZM103.488 108.424C96.3841 108.424 90.8161 113.656 90.8161 121.048C90.8161 128.44 96.3841 133.72 103.488 133.72C110.64 133.72 116.16 128.44 116.16 121.048C116.16 113.656 110.64 108.424 103.488 108.424ZM127.153 133V98.248H119.857V133H127.153ZM139.887 133V98.248H132.591V133H139.887ZM143.651 126.424C143.651 130.216 146.675 133.672 151.907 133.672C155.075 133.672 157.379 132.328 158.627 130.312C158.627 131.944 158.819 132.808 158.867 133H165.443C165.395 132.76 165.155 131.176 165.155 129.304V117.64C165.155 112.744 162.323 108.424 154.595 108.424C147.587 108.424 144.419 112.936 144.131 116.344L150.467 117.64C150.611 115.864 152.003 114.136 154.547 114.136C156.851 114.136 158.051 115.336 158.051 116.728C158.051 117.544 157.619 118.168 156.323 118.36L150.707 119.224C146.771 119.8 143.651 122.2 143.651 126.424ZM153.683 128.392C151.667 128.392 150.851 127.192 150.851 125.944C150.851 124.264 152.003 123.544 153.539 123.304L158.051 122.584V123.64C158.051 127.336 155.843 128.392 153.683 128.392ZM177.35 133V130.312C178.454 132.136 180.902 133.528 184.07 133.528C190.742 133.528 195.446 128.296 195.446 121C195.446 113.848 191.27 108.568 184.358 108.568C181.094 108.568 178.454 109.912 177.446 111.4V98.248H170.294V133H177.35ZM188.15 121.048C188.15 125.032 185.606 127 182.774 127C179.942 127 177.35 124.984 177.35 121.048C177.35 117.016 179.942 115.144 182.774 115.144C185.606 115.144 188.15 117.016 188.15 121.048ZM210.098 127C207.362 127 204.722 125.032 204.722 121.048C204.722 117.016 207.362 115.144 210.098 115.144C212.882 115.144 215.474 117.016 215.474 121.048C215.474 125.08 212.882 127 210.098 127ZM210.098 108.424C202.993 108.424 197.426 113.656 197.426 121.048C197.426 128.44 202.993 133.72 210.098 133.72C217.25 133.72 222.77 128.44 222.77 121.048C222.77 113.656 217.25 108.424 210.098 108.424ZM241.634 109.144C241.154 109 240.434 108.904 239.714 108.904C237.794 108.904 234.77 109.672 233.522 112.36V109.144H226.466V133H233.762V122.584C233.762 117.832 236.402 116.104 239.33 116.104C240.05 116.104 240.818 116.152 241.634 116.344V109.144ZM243.807 126.424C243.807 130.216 246.831 133.672 252.063 133.672C255.231 133.672 257.535 132.328 258.783 130.312C258.783 131.944 258.975 132.808 259.023 133H265.599C265.551 132.76 265.311 131.176 265.311 129.304V117.64C265.311 112.744 262.479 108.424 254.751 108.424C247.743 108.424 244.575 112.936 244.287 116.344L250.623 117.64C250.767 115.864 252.159 114.136 254.703 114.136C257.007 114.136 258.207 115.336 258.207 116.728C258.207 117.544 257.775 118.168 256.479 118.36L250.863 119.224C246.927 119.8 243.807 122.2 243.807 126.424ZM253.839 128.392C251.823 128.392 251.007 127.192 251.007 125.944C251.007 124.264 252.159 123.544 253.695 123.304L258.207 122.584V123.64C258.207 127.336 255.999 128.392 253.839 128.392ZM278.952 102.184H272.424V105.256C272.424 107.464 271.224 109.144 268.728 109.144H267.528V115.528H271.752V125.752C271.752 130.504 274.776 133.432 279.72 133.432C282.024 133.432 283.224 132.904 283.512 132.76V126.712C283.08 126.808 282.36 126.952 281.592 126.952C280.008 126.952 278.952 126.424 278.952 124.456V115.528H283.608V109.144H278.952V102.184ZM295.075 133V109.144H287.779V133H295.075ZM287.155 101.848C287.155 104.2 289.075 106.12 291.379 106.12C293.779 106.12 295.699 104.2 295.699 101.848C295.699 99.496 293.779 97.576 291.379 97.576C289.075 97.576 287.155 99.496 287.155 101.848ZM311.41 127C308.674 127 306.034 125.032 306.034 121.048C306.034 117.016 308.674 115.144 311.41 115.144C314.194 115.144 316.786 117.016 316.786 121.048C316.786 125.08 314.194 127 311.41 127ZM311.41 108.424C304.306 108.424 298.738 113.656 298.738 121.048C298.738 128.44 304.306 133.72 311.41 133.72C318.562 133.72 324.082 128.44 324.082 121.048C324.082 113.656 318.562 108.424 311.41 108.424ZM335.075 119.32C335.075 116.92 336.611 115.144 339.011 115.144C341.651 115.144 342.899 116.92 342.899 119.272V133H350.195V118.024C350.195 112.792 347.507 108.52 341.507 108.52C339.059 108.52 336.131 109.624 334.835 111.88V109.144H327.779V133H335.075V119.32ZM353.357 126.232C353.549 128.872 355.949 133.72 363.437 133.72C369.821 133.72 372.941 129.736 372.941 125.656C372.941 122.152 370.541 119.176 365.597 118.168L362.429 117.544C361.373 117.352 360.557 116.776 360.557 115.768C360.557 114.52 361.757 113.704 363.149 113.704C365.357 113.704 366.365 115.048 366.557 116.632L372.605 115.528C372.365 112.744 369.965 108.424 363.053 108.424C357.725 108.424 353.885 111.976 353.885 116.344C353.885 119.704 355.901 122.584 360.989 123.688L363.725 124.312C365.501 124.696 366.077 125.416 366.077 126.28C366.077 127.336 365.165 128.344 363.293 128.344C360.797 128.344 359.645 126.76 359.549 125.128L353.357 126.232Z" fill="white"/>
<path d="M63.528 183.36C67.44 183.36 70.128 181.08 71.04 177.888L68.952 177.12C68.256 179.448 66.432 181.2 63.528 181.2C60.432 181.2 57.48 178.92 57.48 174.48C57.48 170.04 60.432 167.784 63.528 167.784C66.312 167.784 68.184 169.224 68.832 171.792L71.016 171.024C70.152 167.736 67.416 165.624 63.528 165.624C59.304 165.624 55.08 168.792 55.08 174.48C55.08 180.168 59.136 183.36 63.528 183.36ZM78.3953 181.344C76.4753 181.344 74.7953 179.904 74.7953 177.216C74.7953 174.552 76.4753 173.112 78.3953 173.112C80.3153 173.112 81.9953 174.552 81.9953 177.216C81.9953 179.904 80.3153 181.344 78.3953 181.344ZM78.3953 171.096C74.9393 171.096 72.4913 173.712 72.4913 177.216C72.4913 180.744 74.9393 183.36 78.3953 183.36C81.8513 183.36 84.2993 180.744 84.2993 177.216C84.2993 173.712 81.8513 171.096 78.3953 171.096ZM89.4416 183V165.624H87.1856V183H89.4416ZM95.5354 183V165.624H93.2794V183H95.5354ZM98.6531 179.904C98.6531 181.728 100.165 183.36 102.517 183.36C104.581 183.36 105.733 182.256 106.237 181.44C106.237 182.28 106.309 182.712 106.357 183H108.565C108.517 182.712 108.421 182.112 108.421 181.104V175.32C108.421 173.064 107.077 171.096 103.621 171.096C101.125 171.096 99.1331 172.632 98.8931 174.84L101.053 175.344C101.197 174 102.085 173.016 103.669 173.016C105.421 173.016 106.165 173.952 106.165 175.08C106.165 175.488 105.973 175.848 105.277 175.944L102.157 176.4C100.165 176.688 98.6531 177.84 98.6531 179.904ZM102.829 181.464C101.677 181.464 100.957 180.648 100.957 179.784C100.957 178.752 101.677 178.2 102.637 178.056L106.165 177.528V178.056C106.165 180.576 104.677 181.464 102.829 181.464ZM114.168 183V181.32C114.888 182.568 116.208 183.312 117.912 183.312C121.344 183.312 123.288 180.6 123.288 177.168C123.288 173.808 121.488 171.12 117.984 171.12C116.064 171.12 114.72 172.056 114.168 173.088V165.624H111.936V183H114.168ZM120.984 177.168C120.984 179.664 119.64 181.296 117.576 181.296C115.584 181.296 114.144 179.664 114.144 177.168C114.144 174.672 115.584 173.112 117.576 173.112C119.664 173.112 120.984 174.672 120.984 177.168ZM131.106 181.344C129.186 181.344 127.506 179.904 127.506 177.216C127.506 174.552 129.186 173.112 131.106 173.112C133.026 173.112 134.706 174.552 134.706 177.216C134.706 179.904 133.026 181.344 131.106 181.344ZM131.106 171.096C127.65 171.096 125.202 173.712 125.202 177.216C125.202 180.744 127.65 183.36 131.106 183.36C134.562 183.36 137.01 180.744 137.01 177.216C137.01 173.712 134.562 171.096 131.106 171.096ZM146.305 171.336C146.185 171.312 145.873 171.264 145.561 171.264C144.385 171.264 142.945 171.696 142.105 173.472V171.456H139.897V183H142.153V177.216C142.153 174.672 143.425 173.664 145.321 173.664C145.633 173.664 145.969 173.688 146.305 173.736V171.336ZM147.989 179.904C147.989 181.728 149.501 183.36 151.853 183.36C153.917 183.36 155.069 182.256 155.573 181.44C155.573 182.28 155.645 182.712 155.693 183H157.901C157.853 182.712 157.757 182.112 157.757 181.104V175.32C157.757 173.064 156.413 171.096 152.957 171.096C150.461 171.096 148.469 172.632 148.229 174.84L150.389 175.344C150.533 174 151.421 173.016 153.005 173.016C154.757 173.016 155.501 173.952 155.501 175.08C155.501 175.488 155.309 175.848 154.613 175.944L151.493 176.4C149.501 176.688 147.989 177.84 147.989 179.904ZM152.165 181.464C151.013 181.464 150.293 180.648 150.293 179.784C150.293 178.752 151.013 178.2 151.973 178.056L155.501 177.528V178.056C155.501 180.576 154.013 181.464 152.165 181.464ZM164.296 167.808H162.232V169.68C162.232 170.688 161.704 171.456 160.456 171.456H159.832V173.496H162.04V179.832C162.04 181.92 163.288 183.12 165.256 183.12C166.024 183.12 166.6 182.976 166.792 182.904V180.984C166.6 181.032 166.192 181.08 165.904 181.08C164.728 181.08 164.296 180.552 164.296 179.496V173.496H166.792V171.456H164.296V167.808ZM171.15 176.04C171.246 174.552 172.398 173.088 174.294 173.088C176.334 173.088 177.414 174.384 177.462 176.04H171.15ZM177.798 179.04C177.366 180.336 176.43 181.368 174.558 181.368C172.614 181.368 171.126 179.928 171.078 177.864H179.766C179.79 177.72 179.814 177.432 179.814 177.144C179.814 173.544 177.822 171.096 174.27 171.096C171.366 171.096 168.75 173.568 168.75 177.192C168.75 181.104 171.462 183.36 174.558 183.36C177.246 183.36 179.094 181.752 179.742 179.712L177.798 179.04ZM191.573 187.824L199.085 171.456H196.661L193.205 179.424L189.605 171.456H187.013L191.981 181.728L189.101 187.824H191.573ZM205.731 181.344C203.811 181.344 202.131 179.904 202.131 177.216C202.131 174.552 203.811 173.112 205.731 173.112C207.651 173.112 209.331 174.552 209.331 177.216C209.331 179.904 207.651 181.344 205.731 181.344ZM205.731 171.096C202.275 171.096 199.827 173.712 199.827 177.216C199.827 180.744 202.275 183.36 205.731 183.36C209.187 183.36 211.635 180.744 211.635 177.216C211.635 173.712 209.187 171.096 205.731 171.096ZM222.012 181.608C222.012 182.088 222.06 182.736 222.108 183H224.268C224.22 182.592 224.148 181.776 224.148 180.864V171.456H221.892V178.416C221.892 180.168 220.98 181.368 219.156 181.368C217.26 181.368 216.54 179.976 216.54 178.392V171.456H214.284V178.728C214.284 181.344 215.916 183.36 218.604 183.36C219.948 183.36 221.388 182.808 222.012 181.608ZM234.406 171.336C234.286 171.312 233.974 171.264 233.662 171.264C232.486 171.264 231.046 171.696 230.206 173.472V171.456H227.998V183H230.254V177.216C230.254 174.672 231.526 173.664 233.422 173.664C233.734 173.664 234.07 173.688 234.406 173.736V171.336ZM241.731 180C241.923 181.32 243.267 183.36 246.435 183.36C249.291 183.36 250.659 181.416 250.659 179.784C250.659 178.08 249.555 176.808 247.467 176.352L245.595 175.944C244.707 175.752 244.275 175.248 244.275 174.552C244.275 173.76 245.043 173.016 246.195 173.016C248.019 173.016 248.499 174.336 248.595 174.936L250.587 174.192C250.347 173.16 249.363 171.096 246.195 171.096C243.939 171.096 242.091 172.776 242.091 174.744C242.091 176.376 243.171 177.6 244.971 177.984L246.939 178.416C247.899 178.632 248.427 179.184 248.427 179.904C248.427 180.72 247.731 181.44 246.459 181.44C244.827 181.44 243.915 180.48 243.771 179.28L241.731 180ZM264.006 171.456H260.886L255.894 176.568V165.624H253.662V183H255.894V179.52L257.502 177.912L261.27 183H264.102L259.086 176.328L264.006 171.456ZM268.504 183V171.456H266.272V183H268.504ZM265.768 167.088C265.768 167.976 266.488 168.696 267.376 168.696C268.288 168.696 269.008 167.976 269.008 167.088C269.008 166.176 268.288 165.456 267.376 165.456C266.488 165.456 265.768 166.176 265.768 167.088ZM274.598 183V165.624H272.342V183H274.598ZM280.692 183V165.624H278.436V183H280.692ZM283.449 180C283.641 181.32 284.985 183.36 288.153 183.36C291.009 183.36 292.377 181.416 292.377 179.784C292.377 178.08 291.273 176.808 289.185 176.352L287.313 175.944C286.425 175.752 285.993 175.248 285.993 174.552C285.993 173.76 286.761 173.016 287.913 173.016C289.737 173.016 290.217 174.336 290.313 174.936L292.305 174.192C292.065 173.16 291.081 171.096 287.913 171.096C285.657 171.096 283.809 172.776 283.809 174.744C283.809 176.376 284.889 177.6 286.689 177.984L288.657 178.416C289.617 178.632 290.145 179.184 290.145 179.904C290.145 180.72 289.449 181.44 288.177 181.44C286.545 181.44 285.633 180.48 285.489 179.28L283.449 180ZM300.661 179.904C300.661 181.728 302.173 183.36 304.525 183.36C306.589 183.36 307.741 182.256 308.245 181.44C308.245 182.28 308.317 182.712 308.365 183H310.573C310.525 182.712 310.429 182.112 310.429 181.104V175.32C310.429 173.064 309.085 171.096 305.629 171.096C303.133 171.096 301.141 172.632 300.901 174.84L303.061 175.344C303.205 174 304.093 173.016 305.677 173.016C307.429 173.016 308.173 173.952 308.173 175.08C308.173 175.488 307.981 175.848 307.285 175.944L304.165 176.4C302.173 176.688 300.661 177.84 300.661 179.904ZM304.837 181.464C303.685 181.464 302.965 180.648 302.965 179.784C302.965 178.752 303.685 178.2 304.645 178.056L308.173 177.528V178.056C308.173 180.576 306.685 181.464 304.837 181.464ZM316.199 176.328C316.199 174.576 317.111 173.16 318.887 173.16C320.903 173.16 321.575 174.456 321.575 176.064V183H323.831V175.68C323.831 173.112 322.463 171.12 319.703 171.12C318.359 171.12 316.991 171.672 316.151 173.112V171.456H313.943V183H316.199V176.328ZM328.764 177.192C328.764 174.816 330.108 173.136 332.172 173.136C334.236 173.136 335.484 174.768 335.484 177.144C335.484 179.52 334.212 181.32 332.148 181.32C329.988 181.32 328.764 179.568 328.764 177.192ZM335.508 181.44C335.508 182.136 335.58 182.736 335.628 183H337.812C337.788 182.808 337.692 181.968 337.692 180.864V165.624H335.46V173.088C335.076 172.152 333.972 171.144 331.932 171.144C328.668 171.144 326.46 173.928 326.46 177.192C326.46 180.624 328.548 183.312 331.932 183.312C333.732 183.312 334.956 182.352 335.508 181.248V181.44ZM352.377 173.184C354.345 173.184 355.185 174.504 355.473 175.632L357.513 174.768C357.033 173.016 355.449 171.096 352.377 171.096C349.089 171.096 346.569 173.616 346.569 177.216C346.569 180.72 349.041 183.36 352.401 183.36C355.401 183.36 357.057 181.416 357.609 179.76L355.617 178.896C355.353 179.808 354.561 181.272 352.401 181.272C350.529 181.272 348.873 179.856 348.873 177.216C348.873 174.528 350.553 173.184 352.377 173.184ZM366.664 171.336C366.544 171.312 366.232 171.264 365.92 171.264C364.744 171.264 363.304 171.696 362.464 173.472V171.456H360.256V183H362.512V177.216C362.512 174.672 363.784 173.664 365.68 173.664C365.992 173.664 366.328 173.688 366.664 173.736V171.336ZM370.415 176.04C370.511 174.552 371.663 173.088 373.559 173.088C375.599 173.088 376.679 174.384 376.727 176.04H370.415ZM377.063 179.04C376.631 180.336 375.695 181.368 373.823 181.368C371.879 181.368 370.391 179.928 370.343 177.864H379.031C379.055 177.72 379.079 177.432 379.079 177.144C379.079 173.544 377.087 171.096 373.535 171.096C370.631 171.096 368.015 173.568 368.015 177.192C368.015 181.104 370.727 183.36 373.823 183.36C376.511 183.36 378.359 181.752 379.007 179.712L377.063 179.04ZM381.239 179.904C381.239 181.728 382.751 183.36 385.103 183.36C387.167 183.36 388.319 182.256 388.823 181.44C388.823 182.28 388.895 182.712 388.943 183H391.151C391.103 182.712 391.007 182.112 391.007 181.104V175.32C391.007 173.064 389.663 171.096 386.207 171.096C383.711 171.096 381.719 172.632 381.479 174.84L383.639 175.344C383.783 174 384.671 173.016 386.255 173.016C388.007 173.016 388.751 173.952 388.751 175.08C388.751 175.488 388.559 175.848 387.863 175.944L384.743 176.4C382.751 176.688 381.239 177.84 381.239 179.904ZM385.415 181.464C384.263 181.464 383.543 180.648 383.543 179.784C383.543 178.752 384.263 178.2 385.223 178.056L388.751 177.528V178.056C388.751 180.576 387.263 181.464 385.415 181.464ZM397.546 167.808H395.482V169.68C395.482 170.688 394.954 171.456 393.706 171.456H393.082V173.496H395.29V179.832C395.29 181.92 396.538 183.12 398.506 183.12C399.274 183.12 399.85 182.976 400.042 182.904V180.984C399.85 181.032 399.442 181.08 399.154 181.08C397.978 181.08 397.546 180.552 397.546 179.496V173.496H400.042V171.456H397.546V167.808ZM404.4 176.04C404.496 174.552 405.648 173.088 407.544 173.088C409.584 173.088 410.664 174.384 410.712 176.04H404.4ZM411.048 179.04C410.616 180.336 409.68 181.368 407.808 181.368C405.864 181.368 404.376 179.928 404.328 177.864H413.016C413.04 177.72 413.064 177.432 413.064 177.144C413.064 173.544 411.072 171.096 407.52 171.096C404.616 171.096 402 173.568 402 177.192C402 181.104 404.712 183.36 407.808 183.36C410.496 183.36 412.344 181.752 412.992 179.712L411.048 179.04ZM58.8 219.824L66.312 203.456H63.888L60.432 211.424L56.832 203.456H54.24L59.208 213.728L56.328 219.824H58.8ZM72.9578 213.344C71.0378 213.344 69.3578 211.904 69.3578 209.216C69.3578 206.552 71.0378 205.112 72.9578 205.112C74.8778 205.112 76.5578 206.552 76.5578 209.216C76.5578 211.904 74.8778 213.344 72.9578 213.344ZM72.9578 203.096C69.5018 203.096 67.0538 205.712 67.0538 209.216C67.0538 212.744 69.5018 215.36 72.9578 215.36C76.4138 215.36 78.8618 212.744 78.8618 209.216C78.8618 205.712 76.4138 203.096 72.9578 203.096ZM89.2389 213.608C89.2389 214.088 89.2869 214.736 89.3349 215H91.4949C91.4469 214.592 91.3749 213.776 91.3749 212.864V203.456H89.1189V210.416C89.1189 212.168 88.2069 213.368 86.3829 213.368C84.4869 213.368 83.7669 211.976 83.7669 210.392V203.456H81.5109V210.728C81.5109 213.344 83.1429 215.36 85.8309 215.36C87.1749 215.36 88.6149 214.808 89.2389 213.608ZM101.633 203.336C101.513 203.312 101.201 203.264 100.889 203.264C99.7127 203.264 98.2727 203.696 97.4327 205.472V203.456H95.2247V215H97.4807V209.216C97.4807 206.672 98.7527 205.664 100.649 205.664C100.961 205.664 101.297 205.688 101.633 205.736V203.336ZM111.381 209.192C111.381 206.816 112.725 205.136 114.789 205.136C116.853 205.136 118.101 206.768 118.101 209.144C118.101 211.52 116.829 213.32 114.765 213.32C112.605 213.32 111.381 211.568 111.381 209.192ZM118.125 213.44C118.125 214.136 118.197 214.736 118.245 215H120.429C120.405 214.808 120.309 213.968 120.309 212.864V197.624H118.077V205.088C117.693 204.152 116.589 203.144 114.549 203.144C111.285 203.144 109.077 205.928 109.077 209.192C109.077 212.624 111.165 215.312 114.549 215.312C116.349 215.312 117.573 214.352 118.125 213.248V213.44ZM130.555 203.336C130.435 203.312 130.123 203.264 129.811 203.264C128.635 203.264 127.195 203.696 126.355 205.472V203.456H124.147V215H126.403V209.216C126.403 206.672 127.675 205.664 129.571 205.664C129.883 205.664 130.219 205.688 130.555 205.736V203.336ZM134.306 208.04C134.402 206.552 135.554 205.088 137.45 205.088C139.49 205.088 140.57 206.384 140.618 208.04H134.306ZM140.954 211.04C140.522 212.336 139.586 213.368 137.714 213.368C135.77 213.368 134.282 211.928 134.234 209.864H142.922C142.946 209.72 142.97 209.432 142.97 209.144C142.97 205.544 140.978 203.096 137.426 203.096C134.522 203.096 131.906 205.568 131.906 209.192C131.906 213.104 134.618 215.36 137.714 215.36C140.402 215.36 142.25 213.752 142.898 211.712L140.954 211.04ZM145.13 211.904C145.13 213.728 146.642 215.36 148.994 215.36C151.058 215.36 152.21 214.256 152.714 213.44C152.714 214.28 152.786 214.712 152.834 215H155.042C154.994 214.712 154.898 214.112 154.898 213.104V207.32C154.898 205.064 153.554 203.096 150.098 203.096C147.602 203.096 145.61 204.632 145.37 206.84L147.53 207.344C147.674 206 148.562 205.016 150.146 205.016C151.898 205.016 152.642 205.952 152.642 207.08C152.642 207.488 152.45 207.848 151.754 207.944L148.634 208.4C146.642 208.688 145.13 209.84 145.13 211.904ZM149.306 213.464C148.154 213.464 147.434 212.648 147.434 211.784C147.434 210.752 148.154 210.2 149.114 210.056L152.642 209.528V210.056C152.642 212.576 151.154 213.464 149.306 213.464ZM160.644 215V208.04C160.644 206.312 161.724 205.112 163.332 205.112C165.06 205.112 165.78 206.264 165.78 207.752V215H168.036V208.016C168.036 206.36 169.116 205.112 170.7 205.112C172.404 205.112 173.148 206.24 173.148 207.752V215H175.38V207.512C175.38 204.488 173.412 203.12 171.396 203.12C169.932 203.12 168.444 203.648 167.532 205.304C166.908 203.816 165.516 203.12 164.076 203.12C162.732 203.12 161.292 203.72 160.572 204.992V203.456H158.412V215H160.644ZM188.014 199.808H185.95V201.68C185.95 202.688 185.422 203.456 184.174 203.456H183.55V205.496H185.758V211.832C185.758 213.92 187.006 215.12 188.974 215.12C189.742 215.12 190.318 214.976 190.51 214.904V212.984C190.318 213.032 189.91 213.08 189.622 213.08C188.446 213.08 188.014 212.552 188.014 211.496V205.496H190.51V203.456H188.014V199.808ZM194.868 208.04C194.964 206.552 196.116 205.088 198.012 205.088C200.052 205.088 201.132 206.384 201.18 208.04H194.868ZM201.516 211.04C201.084 212.336 200.148 213.368 198.276 213.368C196.332 213.368 194.844 211.928 194.796 209.864H203.484C203.508 209.72 203.532 209.432 203.532 209.144C203.532 205.544 201.54 203.096 197.988 203.096C195.084 203.096 192.468 205.568 192.468 209.192C192.468 213.104 195.18 215.36 198.276 215.36C200.964 215.36 202.812 213.752 203.46 211.712L201.516 211.04ZM205.692 211.904C205.692 213.728 207.204 215.36 209.556 215.36C211.62 215.36 212.772 214.256 213.276 213.44C213.276 214.28 213.348 214.712 213.396 215H215.604C215.556 214.712 215.46 214.112 215.46 213.104V207.32C215.46 205.064 214.116 203.096 210.66 203.096C208.164 203.096 206.172 204.632 205.932 206.84L208.092 207.344C208.236 206 209.124 205.016 210.708 205.016C212.46 205.016 213.204 205.952 213.204 207.08C213.204 207.488 213.012 207.848 212.316 207.944L209.196 208.4C207.204 208.688 205.692 209.84 205.692 211.904ZM209.868 213.464C208.716 213.464 207.996 212.648 207.996 211.784C207.996 210.752 208.716 210.2 209.676 210.056L213.204 209.528V210.056C213.204 212.576 211.716 213.464 209.868 213.464ZM221.207 215V208.04C221.207 206.312 222.287 205.112 223.895 205.112C225.623 205.112 226.343 206.264 226.343 207.752V215H228.599V208.016C228.599 206.36 229.679 205.112 231.263 205.112C232.967 205.112 233.711 206.24 233.711 207.752V215H235.943V207.512C235.943 204.488 233.975 203.12 231.959 203.12C230.495 203.12 229.007 203.648 228.095 205.304C227.471 203.816 226.079 203.12 224.639 203.12C223.295 203.12 221.855 203.72 221.135 204.992V203.456H218.975V215H221.207ZM247.809 208.328C247.809 206.576 248.721 205.16 250.497 205.16C252.513 205.16 253.185 206.456 253.185 208.064V215H255.441V207.68C255.441 205.112 254.073 203.12 251.313 203.12C249.969 203.12 248.601 203.672 247.761 205.112V203.456H245.553V215H247.809V208.328ZM263.973 213.344C262.053 213.344 260.373 211.904 260.373 209.216C260.373 206.552 262.053 205.112 263.973 205.112C265.893 205.112 267.573 206.552 267.573 209.216C267.573 211.904 265.893 213.344 263.973 213.344ZM263.973 203.096C260.517 203.096 258.069 205.712 258.069 209.216C258.069 212.744 260.517 215.36 263.973 215.36C267.429 215.36 269.877 212.744 269.877 209.216C269.877 205.712 267.429 203.096 263.973 203.096ZM279.033 203.456L276.033 212.144L273.441 203.456H270.969L274.761 215H277.137L280.137 206.216L283.209 215H285.537L289.281 203.456H286.905L284.361 212.144L281.361 203.456H279.033Z" fill="white"/>
<rect x="509" y="105.383" width="157.488" height="159.032" rx="10" transform="rotate(-21.7595 509 105.383)" fill="url(#paint1_linear_13021_38837)"/>
<path d="M547.5 107C547.5 127.653 530.322 144.5 509 144.5C487.678 144.5 470.5 127.653 470.5 107C470.5 86.3472 487.678 69.5 509 69.5C530.322 69.5 547.5 86.3472 547.5 107Z" stroke="white" stroke-opacity="0.15" stroke-width="5"/>
<defs>
<filter id="filter0_d_13021_38837" x="0" y="0" width="734" height="337" filterUnits="userSpaceOnUse" color-interpolation-filters="sRGB">
<feFlood flood-opacity="0" result="BackgroundImageFix"/>
<feColorMatrix in="SourceAlpha" type="matrix" values="0 0 0 0 0 0 0 0 0 0 0 0 0 0 0 0 0 0 127 0" result="hardAlpha"/>
<feOffset dy="4"/>
<feGaussianBlur stdDeviation="4"/>
<feColorMatrix type="matrix" values="0 0 0 0 0 0 0 0 0 0 0 0 0 0 0 0 0 0 0.12 0"/>
<feBlend mode="normal" in2="BackgroundImageFix" result="effect1_dropShadow_13021_38837"/>
<feBlend mode="normal" in="SourceGraphic" in2="effect1_dropShadow_13021_38837" result="shape"/>
</filter>
<linearGradient id="paint0_linear_13021_38837" x1="726" y1="4" x2="486.79" y2="539.055" gradientUnits="userSpaceOnUse">
<stop stop-color="#FFE459"/>
<stop offset="0.451557" stop-color="#FA9E5B"/>
<stop offset="1" stop-color="#FF6B00"/>
</linearGradient>
<linearGradient id="paint1_linear_13021_38837" x1="525.395" y1="111.515" x2="656.041" y2="250.877" gradientUnits="userSpaceOnUse">
<stop stop-color="#F4DDA0"/>
<stop offset="0.523958" stop-color="#E9C874" stop-opacity="0.66"/>
<stop offset="1" stop-color="#F98600"/>
</linearGradient>
</defs>
</svg>
