<svg width="450" height="795" viewBox="0 0 450 795" fill="none" xmlns="http://www.w3.org/2000/svg">
<g filter="url(#filter0_f_11426_17221)">
<rect x="58.105" y="287.387" width="511.321" height="503.836" rx="46" transform="rotate(-26.6919 58.105 287.387)" stroke="url(#paint0_linear_11426_17221)" stroke-width="80"/>
</g>
<defs>
<filter id="filter0_f_11426_17221" x="0.847168" y="0.447266" width="797.667" height="794.342" filterUnits="userSpaceOnUse" color-interpolation-filters="sRGB">
<feFlood flood-opacity="0" result="BackgroundImageFix"/>
<feBlend mode="normal" in="SourceGraphic" in2="BackgroundImageFix" result="shape"/>
<feGaussianBlur stdDeviation="16.5" result="effect1_foregroundBlur_11426_17221"/>
</filter>
<linearGradient id="paint0_linear_11426_17221" x1="367.93" y1="142.018" x2="132.04" y2="897.918" gradientUnits="userSpaceOnUse">
<stop stop-color="#3399CC"/>
<stop offset="1" stop-color="#3399CC" stop-opacity="0"/>
</linearGradient>
</defs>
</svg>
