<svg width="160" height="160" viewBox="0 0 160 160" fill="none" xmlns="http://www.w3.org/2000/svg">
<circle cx="80" cy="80" r="80" fill="url(#paint0_linear_12170_28895)"/>
<defs>
<linearGradient id="paint0_linear_12170_28895" x1="160" y1="0" x2="0" y2="160" gradientUnits="userSpaceOnUse">
<stop stop-color="#FF8855"/>
<stop offset="1" stop-color="#FFAB1D"/>
</linearGradient>
</defs>
</svg>
