<svg width="1633" height="1154" viewBox="0 0 1633 1154" fill="none" xmlns="http://www.w3.org/2000/svg">
<g clip-path="url(#clip0_907_32276)">
<rect width="1633" height="1154" fill="#E71E24"/>
<g clip-path="url(#clip1_907_32276)">
<path d="M1565.41 1084.18L1566.44 1086.66L1568.52 1084.97C1603.53 1056.5 1634.77 1040.5 1664.5 1034.19C1719.93 1022.42 1767.36 1044.94 1818.88 1075.35C1873.55 1107.63 1914.28 1172.67 1922.2 1241.73C1930.19 1311.5 1904.72 1385.85 1826.59 1435.14C1751.26 1482.67 1659.74 1518.94 1568.74 1522.62C1556.27 1523.13 1543.82 1523.02 1531.42 1522.24L1530.64 1522.19L1530.03 1522.69C1512.34 1537.12 1492.18 1550.91 1469.53 1564.24C1424.32 1590.85 1379.61 1602.33 1338.42 1600.96L1336 1600.88L1336.38 1603.27C1343.03 1645.44 1359.11 1683.58 1385.15 1715.9L1385.21 1715.98L1385.28 1716.04C1440.73 1772.95 1550.98 1788.61 1686.32 1754.18C1795.95 1726.28 1919.79 1665.95 2038.98 1571.55L2037.21 1568.06C1941.59 1594.01 1835.41 1564.14 1767.93 1483.3L1784.92 1469.32C1868.7 1569.55 2017.46 1584.09 2119.05 1501.96L2126.04 1510.47L2126.09 1510.53L2126.14 1510.58L2133.7 1518.55C2126.95 1524.94 2120.16 1531.21 2113.35 1537.37L2113.3 1537.42L2113.25 1537.47C2031.24 1623.34 2024.01 1758.61 2100.39 1853.09L2083.4 1867.06C2019.98 1788.72 2009.24 1684.65 2046.97 1598.02L2043.91 1595.64C1925.19 1687.89 1801.94 1747.46 1691.74 1775.5C1553.81 1810.59 1432.86 1796.94 1369.06 1730.92L1368.72 1730.58L1368.42 1730.2C1337.95 1692.57 1320.15 1648.26 1313.67 1599.96L1313.47 1598.5L1312.03 1598.25C1270.83 1591.09 1234.06 1570.47 1205.13 1538.78C1143.05 1470.78 1119.58 1354.54 1162.67 1219.73C1169.57 1198.17 1177.65 1177.07 1186.8 1156.58L1187.04 1156.04L1186.95 1155.46C1182.68 1127.69 1180.82 1098.36 1181.91 1067.37C1184.64 989.345 1242.06 913.584 1311.95 884.422C1347.25 869.694 1386.39 866.571 1423.6 881.705L1424.36 879.853L1423.6 881.705C1460.81 896.837 1494.57 929.601 1520.36 983.75C1537.25 1019.2 1552.31 1052.62 1565.41 1084.18ZM1558.68 1126.56L1557.6 1123.77L1555.43 1125.83C1534.86 1145.31 1512.47 1169.39 1487.82 1198.86C1426.17 1272.56 1381.56 1349.97 1356.45 1424.18L1356.04 1425.42L1357 1426.3C1406.67 1471.73 1463.56 1493.9 1522.55 1499.49L1523.4 1499.57L1524.05 1499.01C1575.57 1454.34 1600.89 1404.36 1604.61 1342.64C1608.13 1284.05 1592.32 1213.96 1558.68 1126.56ZM1547.86 1102.82L1548.89 1101.88L1548.36 1100.59C1534.77 1067.31 1518.79 1031.61 1500.5 993.211C1476.42 942.66 1446.19 914.644 1415.31 902.084C1384.44 889.527 1351.4 891.8 1320.42 904.726C1257.76 930.872 1206.3 999.449 1203.89 1068.14C1203.36 1083.34 1203.57 1098.13 1204.46 1112.52L1204.88 1119.45L1208.21 1113.35C1231.58 1070.5 1259.77 1031.13 1291.63 996.808L1307.7 1011.84C1268.75 1053.8 1235.43 1103.75 1210.1 1158.5L1209.83 1159.07L1209.94 1159.68C1226.87 1257.94 1275.67 1335.85 1330.93 1399.49C1332.77 1401.61 1334.62 1403.69 1336.49 1405.74L1338.72 1408.18L1339.85 1405.08C1366.6 1331.56 1411.22 1256.16 1470.94 1184.75C1498.73 1151.52 1524.17 1124.45 1547.86 1102.82ZM1576.2 1107.18L1575.11 1108.11L1575.63 1109.44C1612.35 1202.75 1630.47 1279.13 1626.57 1343.97C1622.92 1404.47 1600.23 1454.08 1557.74 1497.48L1554.34 1500.96L1559.21 1500.88C1562.09 1500.84 1564.97 1500.75 1567.85 1500.64C1653.91 1497.15 1741.71 1462.68 1814.85 1416.54C1885.2 1372.16 1907.46 1306.38 1900.34 1244.24C1893.14 1181.4 1855.91 1122.76 1807.69 1094.3C1756.32 1063.97 1715.51 1045.85 1669.07 1055.71C1641.87 1061.48 1611.81 1077.05 1576.2 1107.18ZM1351.26 1450.57L1348.87 1448.54L1348.04 1451.56C1345.22 1461.77 1342.79 1471.91 1340.74 1481.95C1334.02 1514.97 1331.54 1546.82 1333.48 1576.94L1333.59 1578.71L1335.36 1578.81C1373.37 1580.95 1415.23 1570.67 1458.37 1545.28C1471.65 1537.47 1483.95 1529.55 1495.31 1521.48L1499.21 1518.71L1494.5 1517.88C1443.94 1508.97 1395.12 1487.78 1351.26 1450.57ZM1308.81 1575.19L1311.37 1575.75L1311.24 1573.14C1309.76 1542.41 1312.51 1510.34 1319.18 1477.56C1322.18 1462.82 1325.98 1447.91 1330.55 1432.89L1330.9 1431.75L1330.06 1430.91C1324.72 1425.51 1319.47 1419.85 1314.31 1413.91C1264.36 1356.39 1218.83 1286.66 1196.35 1200.82L1194.75 1194.7L1192.55 1200.63C1189.38 1209.14 1186.41 1217.75 1183.63 1226.43C1142.23 1355.94 1166.01 1463.3 1221.37 1523.95C1245.01 1549.84 1274.87 1567.73 1308.81 1575.19Z" stroke="#B61223" stroke-width="4"/>
</g>
<g clip-path="url(#clip2_907_32276)">
<path d="M391.771 89.6601L393.176 89.6758C396.778 89.7162 400.403 89.7585 404.049 89.801C407.037 89.8359 410.039 89.871 413.055 89.9052L413.056 89.9053C417.165 89.9549 421.302 90.0042 425.466 90.0538C436.201 90.1815 447.118 90.3115 458.22 90.457L458.54 65.7477C443.416 65.5542 428.67 65.378 414.284 65.2067L414.268 65.2065L414.252 65.2061L414.25 65.206M391.771 89.6601L404.793 63.0929C407.941 63.1308 411.107 63.1688 414.291 63.2064L414.235 65.2056L414.25 65.206M391.771 89.6601L391.28 90.9761C368.633 151.634 335.575 197.119 296.481 229.634C247.176 270.647 188.988 290.423 131.707 294.546C74.511 298.658 17.9343 287.184 -28.6782 265.395C-75.0988 243.692 -112.831 211.132 -130.541 172.127C-164.092 98.2238 -164.303 35.5511 -137.253 -28.9719L-139.098 -29.7451L-137.253 -28.9722C-136.743 -30.1882 -136.224 -31.4052 -135.694 -32.6223L-135.178 -33.8088L-136.049 -34.766C-147.882 -47.7735 -159.179 -62.1758 -170.049 -78.1256C-221.884 -154.184 -234.584 -228.168 -220.037 -294.724C-205.562 -360.948 -164.436 -418.404 -111.115 -462.569C-57.7824 -506.744 8.36522 -538.161 74.2225 -552.132C92.1812 -555.942 110.213 -558.471 128.028 -559.59L129.186 -559.662L129.698 -560.703C144.085 -589.961 163.93 -616.298 188.365 -638.591C270.447 -713.477 361.443 -753.816 469.689 -745.51C551.739 -739.214 642.608 -705.039 746.05 -638.704L752.165 -634.782L748.919 -641.282C711.16 -716.864 713.634 -809.888 763.267 -885.393M391.771 89.6601L763.267 -885.393M414.25 65.206C410.37 65.1603 406.517 65.1138 402.69 65.0677L400.043 65.0359L400.797 62.498C402.971 55.1858 405.005 47.6788 406.896 39.9734C416.015 2.79587 423.786 -32.341 430.032 -65.57L430.36 -67.3174L432.134 -67.1959C434.516 -67.0327 436.887 -66.9183 439.247 -66.8504L439.19 -64.8513L439.248 -66.8504C499.44 -65.1093 549.032 -93.792 594.262 -126.894C642.083 -161.895 674.497 -222.207 675.65 -283.804C676.821 -346.276 645.799 -409.244 568.707 -447.854C513.642 -475.432 443.963 -474.979 371.799 -456.997L370.659 -456.713L369.856 -457.571C341.635 -487.729 305.282 -513.601 260.039 -536.172C230.169 -551.075 196.205 -558.662 160.566 -560.022L157.261 -560.148L158.908 -563.016C171.111 -584.27 186.634 -603.562 205.021 -620.336C283.322 -691.774 367.879 -728.539 467.798 -720.871C547.364 -714.766 637.848 -680.408 743.699 -610.765L742.332 -607.112C653.214 -619.149 560.871 -581.425 506.972 -502.224L527.513 -488.485C595.113 -587.628 729.764 -614.343 830.093 -548.517L836.972 -558.809L837.012 -558.869L837.056 -558.925L844.629 -568.667C837.448 -574.231 830.332 -579.656 823.267 -584.944L823.207 -584.988L823.152 -585.036C741.27 -656.296 722.824 -778.703 783.807 -871.654L763.267 -885.393M414.25 65.206L763.267 -885.393M458.194 92.4574C458.86 92.4661 459.526 92.4744 460.193 92.4833L460.22 90.4834L458.194 92.4574ZM364.359 92.0373L365.455 89.3268L362.531 89.2875C236.431 87.5948 137.883 84.6851 58.6185 68.6636C-11.5796 54.4808 -67.1954 29.9253 -114.193 -12.8652L-116.355 -14.8339L-117.406 -12.105C-138.666 43.1088 -137.611 96.776 -108.04 161.909C-93.5324 193.872 -61.2648 222.874 -18.2111 243.007C24.6502 263.055 77.0218 273.702 129.936 269.899L129.792 267.904L129.936 269.899C182.768 266.096 235.855 247.921 280.678 210.639C314.073 182.861 343.282 144.142 364.359 92.0373ZM372.765 64.698L374.247 64.7171L374.697 63.3045C377.675 53.9431 380.414 44.2078 382.896 34.0876C391.858 -2.45071 399.434 -36.736 405.515 -68.9428L405.875 -70.8498L403.98 -71.267C352.638 -82.5685 295.469 -116.074 228.745 -181.523C186.102 -223.353 155.1 -266.88 134.547 -310.311L133.502 -312.52L131.544 -311.058C93.2949 -282.518 58.7662 -251.363 30.6096 -219.628C-31.7433 -149.352 -77.9438 -92.9034 -104.888 -40.0088L-105.557 -38.6944L-104.499 -37.6665C-59.553 5.9968 -6.12582 30.3711 63.5139 44.4469C142.599 60.4308 241.822 63.007 372.765 64.698ZM408.148 -95.6642L410.215 -95.1946L410.564 -97.285C425.513 -186.781 427.717 -259.486 414.399 -319.54C405.227 -360.898 388.602 -396.611 363.044 -427.861L362.21 -428.88L360.944 -428.518C338.187 -421.996 314.956 -413.658 291.611 -403.726C244.664 -383.755 198.137 -357.705 155.346 -328.147L153.97 -327.197L154.661 -325.675C173.789 -283.566 203.654 -240.75 246.05 -199.164C310.453 -135.991 363.221 -105.872 408.148 -95.6642ZM391.474 -436.225L388.45 -435.568L390.291 -433.081C413.555 -401.654 429.428 -365.908 438.524 -324.89C452.691 -261.007 450.227 -185.065 435.075 -93.9934L434.706 -91.7774L436.95 -91.6675C437.96 -91.6181 438.964 -91.5802 439.962 -91.551C491.508 -90.0604 535.369 -114.415 579.667 -146.836C621.372 -177.36 649.938 -230.521 650.944 -284.266C651.934 -337.135 626.297 -391.375 557.641 -425.759C512.741 -448.246 454.55 -449.922 391.474 -436.225ZM340.359 -448.123L343.587 -449.138L341.141 -451.476C316.686 -474.857 286.217 -495.497 249.007 -514.061C219.309 -528.877 184.226 -535.777 146.774 -535.532L145.435 -535.524L144.933 -534.282C132.419 -503.313 126.373 -469.203 127.916 -433.341C129.029 -407.473 134.102 -380.557 143.646 -353.145L144.503 -350.684L146.659 -352.149C189.399 -381.184 235.486 -406.704 281.938 -426.466C301.283 -434.695 320.838 -441.984 340.359 -448.123ZM117.352 -531.069L118.38 -534.046L115.249 -533.711C103.405 -532.442 91.4102 -530.517 79.3503 -527.959C17.3351 -514.804 -45.1492 -485.122 -95.3525 -443.539C-145.569 -401.946 -182.882 -348.986 -195.895 -289.448C-208.836 -230.243 -198.07 -163.121 -149.629 -92.0413L-147.977 -93.1676L-149.629 -92.0412C-141.785 -80.532 -133.716 -69.8845 -125.36 -60.0337L-123.474 -57.8093L-122.079 -60.3712C-92.8927 -113.979 -46.4658 -169.992 12.1249 -236.028C42.797 -270.598 80.5764 -304.376 122.393 -335.025L123.616 -335.921L123.083 -337.341C111.014 -369.478 104.558 -401.365 103.227 -432.278C101.734 -467.006 106.727 -500.298 117.352 -531.069Z" stroke="#B61223" stroke-width="4"/>
</g>
<path d="M1398 730.091C1398 1168.65 1004 1334 816.5 1334C629 1334 235 1168.65 235 730.091C235 425.356 495.346 -64 816.5 -64C1137.65 -64 1398 452.604 1398 730.091Z" fill="white"/>
<g clip-path="url(#clip3_907_32276)">
<path d="M1769.07 812.244L1768.23 809.694L1766.03 811.219C1728.91 836.878 1696.52 850.405 1666.39 854.386C1610.21 861.805 1564.67 835.674 1515.68 801.348C1463.68 764.917 1428.13 696.908 1425.61 627.439C1423.06 557.264 1454.23 485.112 1535.95 442.044C1614.75 400.519 1708.81 371.474 1799.82 374.874C1812.29 375.34 1824.7 376.416 1837.01 378.152L1837.78 378.261L1838.42 377.815C1857.18 364.801 1878.35 352.623 1901.97 341.088C1949.11 318.076 1994.58 310.101 2035.54 314.675L2037.94 314.943L2037.75 312.53C2034.4 269.968 2021.33 230.693 1997.88 196.445L1997.83 196.367L1997.77 196.294C1946.91 135.252 1838.2 111.072 1700.6 134.879C1589.13 154.166 1460.97 204.692 1334.82 289.538L1336.3 293.163C1433.65 274.723 1537.19 312.748 1598.18 398.597L1580.15 411.205C1504.42 304.767 1357.24 278.717 1249.58 352.697L1243.26 343.667L1243.22 343.609L1243.18 343.553L1236.26 335.018C1243.49 329.176 1250.74 323.449 1258.01 317.836L1258.06 317.792L1258.12 317.743C1346.55 238.514 1364.27 104.209 1295.47 4.07781L1313.5 -8.52466C1370.64 74.5013 1373.25 179.099 1328.9 262.532L1331.76 265.141C1457.3 182.401 1584.81 132.586 1696.85 113.201C1837.09 88.9367 1956.62 111.948 2015.09 182.723L2015.4 183.094L2015.68 183.492C2043.13 223.374 2057.43 268.932 2060.14 317.597L2060.22 319.061L2061.64 319.424C2102.16 329.767 2137.21 353.181 2163.6 387.024C2220.2 459.64 2234.56 577.362 2181.12 708.411C2172.57 729.371 2162.88 749.779 2152.16 769.494L2151.87 770.012L2151.92 770.599C2154.02 798.617 2153.59 827.998 2150.1 858.814C2141.32 936.391 2078.18 1007.46 2006.23 1031.1C1969.9 1043.04 1930.63 1043.11 1894.71 1025.13L1893.81 1026.92L1894.71 1025.13C1858.79 1007.15 1827.68 971.865 1806.17 915.874C1792.09 879.215 1779.67 844.731 1769.07 812.244ZM1779.07 770.518L1779.93 773.38L1782.25 771.501C1804.27 753.679 1828.47 731.409 1855.34 703.941C1922.52 635.254 1973.02 561.55 2003.82 489.511L2004.33 488.312L2003.44 487.359C1957.45 438.208 1902.46 411.679 1844.08 401.528L1843.24 401.381L1842.55 401.89C1787.71 442.418 1758.58 490.273 1750.08 551.518C1742.01 609.661 1752.33 680.768 1779.07 770.518ZM1788.01 795.028L1786.91 795.886L1787.34 797.215C1798.3 831.447 1811.46 868.276 1826.71 907.986C1846.79 960.255 1874.74 990.536 1904.56 1005.46C1934.36 1020.38 1967.48 1020.68 1999.37 1010.2C2063.87 989.003 2120.51 924.634 2128.24 856.338C2129.95 841.224 2130.89 826.465 2131.13 812.052L2131.24 805.109L2127.45 810.928C2100.82 851.829 2069.66 888.895 2035.22 920.634L2020.37 904.402C2062.47 865.591 2099.56 818.382 2129.08 765.764L2129.39 765.221L2129.33 764.6C2120.08 665.325 2077.49 583.859 2027.35 516.119C2025.68 513.861 2023.99 511.638 2022.29 509.452L2020.26 506.844L2018.89 509.852C1986.5 581.068 1936.16 652.775 1871.07 719.324C1840.77 750.294 1813.31 775.303 1788.01 795.028ZM1760.1 788.473L1761.26 787.635L1760.84 786.265C1731.48 690.388 1719.36 612.83 1728.29 548.493C1736.62 488.451 1763.1 440.756 1808.83 400.788L1812.5 397.586L1807.64 397.286C1804.77 397.108 1801.89 396.966 1799 396.858C1712.93 393.643 1622.72 421.188 1546.21 461.507C1472.63 500.283 1445.32 564.132 1447.59 626.64C1449.89 689.852 1482.44 751.203 1528.3 783.33C1577.16 817.561 1616.44 838.792 1663.51 832.575C1691.08 828.933 1722.25 815.749 1760.1 788.473ZM2011.04 463.612L2013.27 465.818L2014.33 462.873C2017.94 452.909 2021.15 442.993 2023.97 433.142C2033.24 400.746 2038.19 369.18 2038.6 339L2038.62 337.228L2036.86 336.991C1999.14 331.905 1956.61 338.897 1911.63 360.857C1897.78 367.618 1884.9 374.557 1872.94 381.718L1868.84 384.177L1873.47 385.371C1923.19 398.186 1970.21 423.099 2011.04 463.612ZM2063.05 342.666L2060.55 341.908L2060.47 344.52C2059.56 375.27 2054.33 407.032 2045.12 439.194C2040.99 453.657 2036.04 468.222 2030.32 482.841L2029.88 483.952L2030.66 484.862C2035.56 490.656 2040.35 496.708 2045.03 503.03C2090.36 564.264 2130.33 637.316 2146.07 724.644L2147.19 730.872L2149.85 725.13C2153.67 716.889 2157.31 708.543 2160.75 700.105C2212.09 574.204 2196.73 465.321 2146.24 400.549C2124.69 372.9 2096.31 352.742 2063.05 342.666Z" stroke="#B61223" stroke-width="4"/>
</g>
<g clip-path="url(#clip4_907_32276)">
<path d="M-73.2288 1284.66L-71.824 1284.68C-68.222 1284.72 -64.5971 1284.76 -60.9513 1284.8C-57.9631 1284.84 -54.9608 1284.87 -51.9454 1284.91L-51.9439 1284.91C-47.8347 1284.95 -43.698 1285 -39.5339 1285.05C-28.7991 1285.18 -17.8817 1285.31 -6.78046 1285.46L-6.46049 1260.75C-21.5835 1260.55 -36.3304 1260.38 -50.7157 1260.21L-50.7318 1260.21L-50.7478 1260.21L-50.7497 1260.21M-73.2288 1284.66L-60.2067 1258.09C-57.0586 1258.13 -53.8925 1258.17 -50.7088 1258.21L-50.7648 1260.21L-50.7497 1260.21M-73.2288 1284.66L-73.7201 1285.98C-96.3668 1346.63 -129.425 1392.12 -168.519 1424.63C-217.824 1465.65 -276.012 1485.42 -333.293 1489.55C-390.489 1493.66 -447.066 1482.18 -493.678 1460.4C-540.099 1438.69 -577.831 1406.13 -595.541 1367.13C-629.092 1293.22 -629.303 1230.55 -602.253 1166.03L-604.098 1165.25L-602.253 1166.03C-601.743 1164.81 -601.224 1163.59 -600.694 1162.38L-600.178 1161.19L-601.049 1160.23C-612.882 1147.23 -624.179 1132.82 -635.049 1116.87C-686.884 1040.82 -699.584 966.832 -685.037 900.276C-670.562 834.052 -629.436 776.596 -576.115 732.431C-522.782 688.256 -456.635 656.839 -390.777 642.868C-372.819 639.058 -354.787 636.529 -336.972 635.41L-335.814 635.338L-335.302 634.297C-320.915 605.039 -301.07 578.702 -276.635 556.409C-194.553 481.523 -103.557 441.184 4.68879 449.49C86.7388 455.786 177.608 489.961 281.05 556.296L287.165 560.218L283.919 553.718C246.16 478.136 248.634 385.112 298.267 309.607M-73.2288 1284.66L298.267 309.607M-50.7497 1260.21C-54.6295 1260.16 -58.4832 1260.11 -62.3095 1260.07L-64.9569 1260.04L-64.2025 1257.5C-62.0289 1250.19 -59.9945 1242.68 -58.1043 1234.97C-48.9847 1197.8 -41.2139 1162.66 -34.9681 1129.43L-34.6396 1127.68L-32.8658 1127.8C-30.4836 1127.97 -28.1128 1128.08 -25.7526 1128.15L-25.8101 1130.15L-25.7522 1128.15C34.4399 1129.89 84.0317 1101.21 129.262 1068.11C177.083 1033.11 209.497 972.793 210.65 911.196C211.821 848.724 180.799 785.756 103.707 747.146C48.6422 719.568 -21.0369 720.021 -93.2005 738.003L-94.3412 738.287L-95.1445 737.429C-123.365 707.271 -159.718 681.399 -204.961 658.828C-234.831 643.925 -268.795 636.338 -304.434 634.978L-307.739 634.852L-306.092 631.984C-293.889 610.73 -278.366 591.438 -259.979 574.664C-181.678 503.226 -97.1213 466.461 2.79813 474.129C82.3642 480.234 172.848 514.592 278.699 584.235L277.332 587.888C188.214 575.851 95.8708 613.575 41.9724 692.776L62.5128 706.515C130.113 607.372 264.764 580.657 365.093 646.483L371.972 636.191L372.012 636.131L372.056 636.075L379.629 626.333C372.448 620.769 365.332 615.344 358.267 610.056L358.207 610.012L358.152 609.964C276.27 538.704 257.824 416.297 318.807 323.346L298.267 309.607M-50.7497 1260.21L298.267 309.607M-6.80636 1287.46C-6.14044 1287.47 -5.4738 1287.47 -4.80654 1287.48L-4.78 1285.48L-6.80636 1287.46ZM-100.641 1287.04L-99.545 1284.33L-102.469 1284.29C-228.569 1282.59 -327.117 1279.69 -406.382 1263.66C-476.58 1249.48 -532.195 1224.93 -579.193 1182.13L-581.355 1180.17L-582.406 1182.89C-603.666 1238.11 -602.611 1291.78 -573.04 1356.91C-558.532 1388.87 -526.265 1417.87 -483.211 1438.01C-440.35 1458.05 -387.978 1468.7 -335.064 1464.9L-335.208 1462.9L-335.064 1464.9C-282.232 1461.1 -229.145 1442.92 -184.322 1405.64C-150.927 1377.86 -121.718 1339.14 -100.641 1287.04ZM-92.235 1259.7L-90.7528 1259.72L-90.3034 1258.3C-87.3246 1248.94 -84.5864 1239.21 -82.1036 1229.09C-73.1421 1192.55 -65.5658 1158.26 -59.4851 1126.06L-59.125 1124.15L-61.0204 1123.73C-112.362 1112.43 -169.531 1078.93 -236.255 1013.48C-278.898 971.647 -309.9 928.12 -330.453 884.689L-331.498 882.48L-333.456 883.942C-371.705 912.482 -406.234 943.637 -434.39 975.372C-496.743 1045.65 -542.944 1102.1 -569.888 1154.99L-570.557 1156.31L-569.499 1157.33C-524.553 1201 -471.126 1225.37 -401.486 1239.45C-322.401 1255.43 -223.178 1258.01 -92.235 1259.7ZM-56.8517 1099.34L-54.7851 1099.81L-54.4359 1097.72C-39.4866 1008.22 -37.2826 935.514 -50.6009 875.46C-59.7732 834.102 -76.398 798.389 -101.956 767.139L-102.79 766.12L-104.056 766.482C-126.813 773.004 -150.044 781.342 -173.389 791.274C-220.336 811.245 -266.863 837.295 -309.654 866.853L-311.03 867.803L-310.339 869.325C-291.211 911.434 -261.346 954.25 -218.95 995.836C-154.547 1059.01 -101.779 1089.13 -56.8517 1099.34ZM-73.5255 758.775L-76.5501 759.432L-74.7086 761.919C-51.445 793.346 -35.5723 829.092 -26.4759 870.11C-12.309 933.993 -14.7732 1009.93 -29.9249 1101.01L-30.2936 1103.22L-28.0499 1103.33C-27.0404 1103.38 -26.0356 1103.42 -25.038 1103.45C26.5075 1104.94 70.3691 1080.58 114.667 1048.16C156.372 1017.64 184.938 964.479 185.944 910.734C186.934 857.865 161.297 803.625 92.6408 769.241C47.7406 746.754 -10.4504 745.078 -73.5255 758.775ZM-124.641 746.877L-121.413 745.862L-123.859 743.524C-148.314 720.143 -178.783 699.503 -215.993 680.939C-245.691 666.123 -280.774 659.223 -318.226 659.468L-319.565 659.476L-320.067 660.718C-332.581 691.687 -338.627 725.797 -337.084 761.659C-335.971 787.527 -330.898 814.443 -321.354 841.855L-320.497 844.316L-318.341 842.851C-275.601 813.816 -229.514 788.296 -183.062 768.534C-163.717 760.305 -144.162 753.016 -124.641 746.877ZM-347.648 663.931L-346.62 660.954L-349.751 661.289C-361.595 662.558 -373.59 664.483 -385.65 667.041C-447.665 680.196 -510.149 709.878 -560.352 751.461C-610.569 793.054 -647.882 846.014 -660.895 905.552C-673.836 964.757 -663.07 1031.88 -614.629 1102.96L-612.977 1101.83L-614.629 1102.96C-606.785 1114.47 -598.716 1125.12 -590.36 1134.97L-588.474 1137.19L-587.079 1134.63C-557.893 1081.02 -511.466 1025.01 -452.875 958.972C-422.203 924.402 -384.424 890.624 -342.607 859.975L-341.384 859.079L-341.917 857.659C-353.986 825.522 -360.442 793.635 -361.773 762.722C-363.266 727.994 -358.273 694.702 -347.648 663.931Z" stroke="#B61223" stroke-width="4"/>
</g>
<path d="M1431.93 1073.2C1431.93 1071.9 1432.16 1070.63 1432.62 1069.39C1433.1 1068.13 1433.79 1066.99 1434.69 1065.97C1435.59 1064.93 1436.69 1064.11 1437.99 1063.51C1439.29 1062.89 1440.77 1062.58 1442.43 1062.58C1444.39 1062.58 1446.08 1063.01 1447.5 1063.87C1448.94 1064.73 1450.01 1065.85 1450.71 1067.23L1447.53 1069.42C1447.17 1068.62 1446.7 1067.99 1446.12 1067.53C1445.54 1067.05 1444.92 1066.72 1444.26 1066.54C1443.6 1066.34 1442.95 1066.24 1442.31 1066.24C1441.27 1066.24 1440.36 1066.45 1439.58 1066.87C1438.82 1067.29 1438.18 1067.84 1437.66 1068.52C1437.14 1069.2 1436.75 1069.96 1436.49 1070.8C1436.25 1071.64 1436.13 1072.48 1436.13 1073.32C1436.13 1074.26 1436.28 1075.17 1436.58 1076.05C1436.88 1076.91 1437.3 1077.68 1437.84 1078.36C1438.4 1079.02 1439.06 1079.55 1439.82 1079.95C1440.6 1080.33 1441.45 1080.52 1442.37 1080.52C1443.03 1080.52 1443.7 1080.41 1444.38 1080.19C1445.06 1079.97 1445.69 1079.62 1446.27 1079.14C1446.85 1078.66 1447.3 1078.04 1447.62 1077.28L1451.01 1079.23C1450.59 1080.29 1449.9 1081.19 1448.94 1081.93C1448 1082.67 1446.94 1083.23 1445.76 1083.61C1444.58 1083.99 1443.41 1084.18 1442.25 1084.18C1440.73 1084.18 1439.34 1083.87 1438.08 1083.25C1436.82 1082.61 1435.73 1081.77 1434.81 1080.73C1433.91 1079.67 1433.2 1078.49 1432.68 1077.19C1432.18 1075.87 1431.93 1074.54 1431.93 1073.2ZM1460.6 1084.3C1459.32 1084.3 1458.17 1084.09 1457.15 1083.67C1456.13 1083.23 1455.26 1082.63 1454.54 1081.87C1453.84 1081.11 1453.3 1080.24 1452.92 1079.26C1452.54 1078.28 1452.35 1077.25 1452.35 1076.17C1452.35 1075.07 1452.54 1074.03 1452.92 1073.05C1453.3 1072.07 1453.84 1071.2 1454.54 1070.44C1455.26 1069.68 1456.13 1069.09 1457.15 1068.67C1458.17 1068.23 1459.32 1068.01 1460.6 1068.01C1461.88 1068.01 1463.02 1068.23 1464.02 1068.67C1465.04 1069.09 1465.91 1069.68 1466.63 1070.44C1467.35 1071.2 1467.89 1072.07 1468.25 1073.05C1468.63 1074.03 1468.82 1075.07 1468.82 1076.17C1468.82 1077.25 1468.63 1078.28 1468.25 1079.26C1467.89 1080.24 1467.35 1081.11 1466.63 1081.87C1465.93 1082.63 1465.07 1083.23 1464.05 1083.67C1463.03 1084.09 1461.88 1084.3 1460.6 1084.3ZM1456.49 1076.17C1456.49 1077.09 1456.67 1077.91 1457.03 1078.63C1457.39 1079.33 1457.88 1079.88 1458.5 1080.28C1459.12 1080.68 1459.82 1080.88 1460.6 1080.88C1461.36 1080.88 1462.05 1080.68 1462.67 1080.28C1463.29 1079.86 1463.78 1079.3 1464.14 1078.6C1464.52 1077.88 1464.71 1077.06 1464.71 1076.14C1464.71 1075.24 1464.52 1074.43 1464.14 1073.71C1463.78 1072.99 1463.29 1072.43 1462.67 1072.03C1462.05 1071.63 1461.36 1071.43 1460.6 1071.43C1459.82 1071.43 1459.12 1071.64 1458.5 1072.06C1457.88 1072.46 1457.39 1073.02 1457.03 1073.74C1456.67 1074.44 1456.49 1075.25 1456.49 1076.17ZM1486.14 1084H1482.12V1075.18C1482.12 1073.92 1481.9 1073 1481.46 1072.42C1481.02 1071.84 1480.41 1071.55 1479.63 1071.55C1479.09 1071.55 1478.54 1071.69 1477.98 1071.97C1477.44 1072.25 1476.95 1072.64 1476.51 1073.14C1476.07 1073.62 1475.75 1074.18 1475.55 1074.82V1084H1471.53V1068.28H1475.16V1071.19C1475.56 1070.51 1476.07 1069.94 1476.69 1069.48C1477.31 1069 1478.02 1068.64 1478.82 1068.4C1479.64 1068.14 1480.5 1068.01 1481.4 1068.01C1482.38 1068.01 1483.18 1068.19 1483.8 1068.55C1484.44 1068.89 1484.92 1069.36 1485.24 1069.96C1485.58 1070.54 1485.81 1071.2 1485.93 1071.94C1486.07 1072.68 1486.14 1073.43 1486.14 1074.19V1084ZM1504.25 1084H1500.23V1075.18C1500.23 1073.92 1500.01 1073 1499.57 1072.42C1499.13 1071.84 1498.52 1071.55 1497.74 1071.55C1497.2 1071.55 1496.65 1071.69 1496.09 1071.97C1495.55 1072.25 1495.06 1072.64 1494.62 1073.14C1494.18 1073.62 1493.86 1074.18 1493.66 1074.82V1084H1489.64V1068.28H1493.27V1071.19C1493.67 1070.51 1494.18 1069.94 1494.8 1069.48C1495.42 1069 1496.13 1068.64 1496.93 1068.4C1497.75 1068.14 1498.61 1068.01 1499.51 1068.01C1500.49 1068.01 1501.29 1068.19 1501.91 1068.55C1502.55 1068.89 1503.03 1069.36 1503.35 1069.96C1503.69 1070.54 1503.92 1071.2 1504.04 1071.94C1504.18 1072.68 1504.25 1073.43 1504.25 1074.19V1084ZM1515.03 1084.3C1513.77 1084.3 1512.63 1084.09 1511.61 1083.67C1510.59 1083.23 1509.72 1082.64 1509 1081.9C1508.28 1081.14 1507.72 1080.28 1507.32 1079.32C1506.94 1078.34 1506.75 1077.31 1506.75 1076.23C1506.75 1074.73 1507.08 1073.36 1507.74 1072.12C1508.42 1070.88 1509.38 1069.89 1510.62 1069.15C1511.88 1068.39 1513.36 1068.01 1515.06 1068.01C1516.78 1068.01 1518.25 1068.39 1519.47 1069.15C1520.69 1069.89 1521.62 1070.88 1522.26 1072.12C1522.92 1073.34 1523.25 1074.66 1523.25 1076.08C1523.25 1076.32 1523.24 1076.57 1523.22 1076.83C1523.2 1077.07 1523.18 1077.27 1523.16 1077.43H1511.01C1511.09 1078.23 1511.32 1078.93 1511.7 1079.53C1512.1 1080.13 1512.6 1080.59 1513.2 1080.91C1513.82 1081.21 1514.48 1081.36 1515.18 1081.36C1515.98 1081.36 1516.73 1081.17 1517.43 1080.79C1518.15 1080.39 1518.64 1079.87 1518.9 1079.23L1522.35 1080.19C1521.97 1080.99 1521.42 1081.7 1520.7 1082.32C1520 1082.94 1519.17 1083.43 1518.21 1083.79C1517.25 1084.13 1516.19 1084.3 1515.03 1084.3ZM1510.92 1074.88H1519.14C1519.06 1074.08 1518.83 1073.39 1518.45 1072.81C1518.09 1072.21 1517.61 1071.75 1517.01 1071.43C1516.41 1071.09 1515.74 1070.92 1515 1070.92C1514.28 1070.92 1513.62 1071.09 1513.02 1071.43C1512.44 1071.75 1511.96 1072.21 1511.58 1072.81C1511.22 1073.39 1511 1074.08 1510.92 1074.88ZM1533.02 1084.3C1531.74 1084.3 1530.59 1084.09 1529.57 1083.67C1528.55 1083.23 1527.68 1082.63 1526.96 1081.87C1526.24 1081.09 1525.68 1080.21 1525.28 1079.23C1524.9 1078.25 1524.71 1077.22 1524.71 1076.14C1524.71 1074.66 1525.04 1073.31 1525.7 1072.09C1526.38 1070.85 1527.34 1069.86 1528.58 1069.12C1529.82 1068.38 1531.29 1068.01 1532.99 1068.01C1534.69 1068.01 1536.15 1068.38 1537.37 1069.12C1538.59 1069.86 1539.5 1070.83 1540.1 1072.03L1536.17 1073.23C1535.83 1072.65 1535.38 1072.21 1534.82 1071.91C1534.26 1071.59 1533.64 1071.43 1532.96 1071.43C1532.2 1071.43 1531.5 1071.63 1530.86 1072.03C1530.24 1072.41 1529.75 1072.96 1529.39 1073.68C1529.03 1074.38 1528.85 1075.2 1528.85 1076.14C1528.85 1077.06 1529.03 1077.88 1529.39 1078.6C1529.77 1079.3 1530.27 1079.86 1530.89 1080.28C1531.51 1080.68 1532.2 1080.88 1532.96 1080.88C1533.44 1080.88 1533.89 1080.8 1534.31 1080.64C1534.75 1080.48 1535.14 1080.26 1535.48 1079.98C1535.82 1079.7 1536.07 1079.38 1536.23 1079.02L1540.16 1080.22C1539.8 1081 1539.27 1081.7 1538.57 1082.32C1537.89 1082.94 1537.08 1083.43 1536.14 1083.79C1535.22 1084.13 1534.18 1084.3 1533.02 1084.3ZM1552.05 1083.19C1551.71 1083.33 1551.3 1083.49 1550.82 1083.67C1550.34 1083.85 1549.82 1083.99 1549.26 1084.09C1548.72 1084.21 1548.17 1084.27 1547.61 1084.27C1546.87 1084.27 1546.19 1084.14 1545.57 1083.88C1544.95 1083.62 1544.45 1083.21 1544.07 1082.65C1543.71 1082.07 1543.53 1081.32 1543.53 1080.4V1071.37H1541.46V1068.28H1543.53V1063.18H1547.55V1068.28H1550.85V1071.37H1547.55V1079.05C1547.57 1079.59 1547.72 1079.98 1548 1080.22C1548.28 1080.46 1548.63 1080.58 1549.05 1080.58C1549.47 1080.58 1549.88 1080.51 1550.28 1080.37C1550.68 1080.23 1551 1080.11 1551.24 1080.01L1552.05 1083.19Z" fill="white"/>
<path d="M1438.3 1019.1C1437.32 1019.1 1436.43 1018.9 1435.64 1018.51C1434.84 1018.12 1434.15 1017.59 1433.56 1016.92C1432.99 1016.25 1432.55 1015.49 1432.23 1014.65C1431.92 1013.81 1431.76 1012.94 1431.76 1012.05C1431.76 1011.13 1431.93 1010.24 1432.25 1009.41C1432.59 1008.56 1433.06 1007.81 1433.64 1007.16C1434.24 1006.49 1434.94 1005.97 1435.74 1005.59C1436.53 1005.2 1437.4 1005.01 1438.34 1005.01C1439.32 1005.01 1440.21 1005.21 1441 1005.61C1441.8 1006.02 1442.48 1006.56 1443.06 1007.24C1443.63 1007.92 1444.07 1008.67 1444.39 1009.51C1444.7 1010.34 1444.86 1011.2 1444.86 1012.07C1444.86 1013 1444.69 1013.88 1444.37 1014.73C1444.04 1015.57 1443.58 1016.32 1442.98 1016.98C1442.39 1017.64 1441.7 1018.15 1440.9 1018.53C1440.11 1018.91 1439.24 1019.1 1438.3 1019.1ZM1433.54 1012.05C1433.54 1012.76 1433.66 1013.44 1433.88 1014.11C1434.11 1014.76 1434.44 1015.34 1434.86 1015.85C1435.27 1016.36 1435.78 1016.76 1436.36 1017.06C1436.95 1017.36 1437.6 1017.51 1438.32 1017.51C1439.06 1017.51 1439.73 1017.36 1440.32 1017.04C1440.9 1016.73 1441.4 1016.31 1441.8 1015.79C1442.22 1015.27 1442.53 1014.68 1442.74 1014.03C1442.97 1013.38 1443.08 1012.72 1443.08 1012.05C1443.08 1011.35 1442.96 1010.67 1442.72 1010.02C1442.5 1009.36 1442.18 1008.78 1441.75 1008.27C1441.33 1007.75 1440.83 1007.35 1440.24 1007.06C1439.66 1006.76 1439.02 1006.61 1438.32 1006.61C1437.58 1006.61 1436.91 1006.77 1436.32 1007.08C1435.74 1007.38 1435.23 1007.79 1434.82 1008.31C1434.41 1008.84 1434.1 1009.42 1433.88 1010.07C1433.66 1010.71 1433.54 1011.37 1433.54 1012.05ZM1452.34 1010.29C1451.48 1010.3 1450.71 1010.52 1450.05 1010.96C1449.39 1011.37 1448.93 1011.95 1448.66 1012.7V1019H1446.94V1008.78H1448.54V1011.15C1448.89 1010.45 1449.36 1009.88 1449.93 1009.45C1450.52 1009 1451.13 1008.76 1451.77 1008.7C1451.9 1008.7 1452.01 1008.7 1452.1 1008.7C1452.19 1008.7 1452.27 1008.71 1452.34 1008.72V1010.29ZM1457.93 1019.12C1457.23 1019.12 1456.59 1018.98 1456.01 1018.71C1455.43 1018.42 1454.94 1018.03 1454.52 1017.55C1454.1 1017.06 1453.78 1016.49 1453.54 1015.87C1453.32 1015.24 1453.21 1014.59 1453.21 1013.91C1453.21 1013.19 1453.32 1012.51 1453.54 1011.88C1453.78 1011.24 1454.1 1010.67 1454.52 1010.19C1454.95 1009.7 1455.45 1009.31 1456.03 1009.04C1456.6 1008.75 1457.24 1008.61 1457.94 1008.61C1458.79 1008.61 1459.53 1008.82 1460.16 1009.23C1460.8 1009.65 1461.33 1010.18 1461.76 1010.82V1008.78H1463.29V1018.88C1463.29 1019.85 1463.05 1020.66 1462.58 1021.33C1462.13 1021.99 1461.5 1022.5 1460.7 1022.84C1459.92 1023.19 1459.05 1023.36 1458.08 1023.36C1456.93 1023.36 1455.99 1023.16 1455.26 1022.76C1454.53 1022.35 1453.93 1021.8 1453.44 1021.11L1454.44 1020.23C1454.85 1020.83 1455.37 1021.28 1456.01 1021.58C1456.66 1021.88 1457.35 1022.03 1458.08 1022.03C1458.71 1022.03 1459.28 1021.92 1459.8 1021.68C1460.34 1021.46 1460.76 1021.11 1461.08 1020.64C1461.4 1020.17 1461.57 1019.59 1461.57 1018.88V1017.08C1461.19 1017.71 1460.67 1018.2 1460 1018.57C1459.35 1018.93 1458.66 1019.12 1457.93 1019.12ZM1458.45 1017.71C1458.82 1017.71 1459.17 1017.64 1459.51 1017.51C1459.85 1017.38 1460.16 1017.21 1460.45 1017C1460.74 1016.78 1460.98 1016.53 1461.17 1016.26C1461.37 1015.99 1461.5 1015.7 1461.57 1015.42V1012.48C1461.38 1012.01 1461.12 1011.6 1460.78 1011.25C1460.44 1010.88 1460.06 1010.6 1459.63 1010.41C1459.2 1010.2 1458.75 1010.09 1458.3 1010.09C1457.78 1010.09 1457.31 1010.21 1456.89 1010.43C1456.48 1010.65 1456.14 1010.95 1455.85 1011.33C1455.56 1011.69 1455.34 1012.1 1455.19 1012.56C1455.03 1013.02 1454.95 1013.48 1454.95 1013.95C1454.95 1014.46 1455.04 1014.94 1455.22 1015.4C1455.41 1015.84 1455.66 1016.24 1455.97 1016.59C1456.28 1016.94 1456.65 1017.22 1457.08 1017.41C1457.51 1017.61 1457.97 1017.71 1458.45 1017.71ZM1465.27 1016.04C1465.27 1015.39 1465.45 1014.83 1465.81 1014.36C1466.19 1013.88 1466.71 1013.51 1467.36 1013.25C1468.01 1012.98 1468.77 1012.85 1469.63 1012.85C1470.09 1012.85 1470.57 1012.89 1471.08 1012.97C1471.59 1013.04 1472.04 1013.14 1472.43 1013.28V1012.54C1472.43 1011.76 1472.19 1011.14 1471.72 1010.7C1471.25 1010.24 1470.59 1010.02 1469.73 1010.02C1469.17 1010.02 1468.63 1010.12 1468.1 1010.33C1467.59 1010.52 1467.05 1010.81 1466.48 1011.19L1465.85 1009.98C1466.52 1009.52 1467.18 1009.18 1467.85 1008.96C1468.51 1008.72 1469.21 1008.61 1469.92 1008.61C1471.23 1008.61 1472.26 1008.97 1473.02 1009.7C1473.77 1010.42 1474.15 1011.43 1474.15 1012.72V1017.04C1474.15 1017.25 1474.19 1017.41 1474.27 1017.51C1474.36 1017.6 1474.5 1017.66 1474.7 1017.67V1019C1474.53 1019.03 1474.38 1019.05 1474.25 1019.06C1474.13 1019.07 1474.03 1019.08 1473.96 1019.08C1473.55 1019.08 1473.24 1018.97 1473.04 1018.75C1472.84 1018.52 1472.73 1018.29 1472.7 1018.04L1472.66 1017.39C1472.22 1017.97 1471.64 1018.41 1470.92 1018.73C1470.2 1019.04 1469.49 1019.2 1468.79 1019.2C1468.11 1019.2 1467.5 1019.06 1466.97 1018.78C1466.43 1018.5 1466.02 1018.12 1465.72 1017.65C1465.42 1017.17 1465.27 1016.63 1465.27 1016.04ZM1471.92 1016.77C1472.08 1016.59 1472.2 1016.4 1472.29 1016.22C1472.38 1016.02 1472.43 1015.86 1472.43 1015.73V1014.46C1472.02 1014.3 1471.6 1014.18 1471.16 1014.11C1470.71 1014.02 1470.28 1013.97 1469.85 1013.97C1468.97 1013.97 1468.26 1014.15 1467.71 1014.5C1467.18 1014.84 1466.91 1015.31 1466.91 1015.91C1466.91 1016.23 1466.99 1016.55 1467.16 1016.87C1467.35 1017.17 1467.61 1017.41 1467.95 1017.61C1468.3 1017.81 1468.73 1017.9 1469.24 1017.9C1469.77 1017.9 1470.28 1017.8 1470.77 1017.59C1471.25 1017.37 1471.63 1017.09 1471.92 1016.77ZM1485.77 1019H1484.05V1013.28C1484.05 1012.2 1483.88 1011.41 1483.54 1010.92C1483.21 1010.41 1482.71 1010.15 1482.03 1010.15C1481.56 1010.15 1481.09 1010.27 1480.62 1010.51C1480.17 1010.74 1479.76 1011.06 1479.39 1011.46C1479.04 1011.86 1478.78 1012.31 1478.63 1012.83V1019H1476.91V1008.78H1478.47V1010.98C1478.75 1010.49 1479.1 1010.07 1479.53 1009.72C1479.96 1009.37 1480.45 1009.1 1481 1008.9C1481.54 1008.7 1482.12 1008.61 1482.72 1008.61C1483.31 1008.61 1483.79 1008.72 1484.19 1008.94C1484.59 1009.15 1484.9 1009.45 1485.13 1009.84C1485.36 1010.22 1485.52 1010.67 1485.61 1011.19C1485.72 1011.71 1485.77 1012.28 1485.77 1012.89V1019ZM1488.45 1019V1008.78H1490.17V1019H1488.45ZM1488.45 1006.86V1004.71H1490.17V1006.86H1488.45ZM1492.16 1017.88L1498.6 1010.04H1492.33V1008.78H1500.54V1009.9L1494.13 1017.75H1500.55V1019H1492.16V1017.88ZM1506.94 1019.2C1506.17 1019.2 1505.47 1019.06 1504.83 1018.78C1504.2 1018.5 1503.65 1018.11 1503.19 1017.63C1502.73 1017.13 1502.37 1016.57 1502.11 1015.93C1501.86 1015.29 1501.74 1014.61 1501.74 1013.89C1501.74 1012.93 1501.96 1012.04 1502.4 1011.25C1502.85 1010.45 1503.46 1009.81 1504.24 1009.33C1505.04 1008.85 1505.94 1008.61 1506.96 1008.61C1507.99 1008.61 1508.89 1008.85 1509.64 1009.35C1510.41 1009.83 1511.01 1010.47 1511.42 1011.27C1511.86 1012.05 1512.07 1012.9 1512.07 1013.81C1512.07 1013.94 1512.06 1014.07 1512.05 1014.2C1512.05 1014.32 1512.04 1014.41 1512.03 1014.48H1503.56C1503.61 1015.14 1503.79 1015.74 1504.1 1016.26C1504.43 1016.77 1504.85 1017.17 1505.36 1017.47C1505.87 1017.76 1506.41 1017.9 1507 1017.9C1507.63 1017.9 1508.22 1017.75 1508.76 1017.43C1509.32 1017.12 1509.71 1016.71 1509.92 1016.2L1511.41 1016.61C1511.18 1017.11 1510.85 1017.55 1510.41 1017.94C1509.98 1018.33 1509.46 1018.64 1508.86 1018.86C1508.27 1019.08 1507.63 1019.2 1506.94 1019.2ZM1503.5 1013.28H1510.47C1510.41 1012.62 1510.22 1012.03 1509.9 1011.52C1509.57 1011.01 1509.15 1010.62 1508.65 1010.33C1508.14 1010.04 1507.58 1009.9 1506.96 1009.9C1506.36 1009.9 1505.81 1010.04 1505.3 1010.33C1504.79 1010.62 1504.37 1011.01 1504.05 1011.52C1503.73 1012.03 1503.55 1012.62 1503.5 1013.28ZM1513.32 1013.91C1513.32 1012.95 1513.52 1012.06 1513.91 1011.27C1514.31 1010.46 1514.86 1009.81 1515.55 1009.33C1516.26 1008.85 1517.06 1008.61 1517.96 1008.61C1518.78 1008.61 1519.52 1008.82 1520.17 1009.25C1520.82 1009.68 1521.33 1010.21 1521.7 1010.82V1004.71H1523.42V1017.04C1523.42 1017.25 1523.46 1017.41 1523.54 1017.51C1523.63 1017.6 1523.77 1017.66 1523.97 1017.67V1019C1523.64 1019.05 1523.39 1019.08 1523.2 1019.08C1522.86 1019.08 1522.56 1018.96 1522.3 1018.73C1522.06 1018.49 1521.93 1018.23 1521.93 1017.94V1017.08C1521.53 1017.73 1520.99 1018.25 1520.31 1018.63C1519.63 1019.01 1518.92 1019.2 1518.19 1019.2C1517.49 1019.2 1516.84 1019.06 1516.24 1018.78C1515.65 1018.5 1515.13 1018.11 1514.69 1017.61C1514.26 1017.11 1513.92 1016.55 1513.67 1015.93C1513.44 1015.29 1513.32 1014.62 1513.32 1013.91ZM1521.7 1015.42V1012.48C1521.54 1012.04 1521.29 1011.64 1520.93 1011.29C1520.58 1010.92 1520.18 1010.64 1519.74 1010.43C1519.31 1010.21 1518.88 1010.09 1518.45 1010.09C1517.94 1010.09 1517.48 1010.21 1517.06 1010.43C1516.65 1010.64 1516.3 1010.92 1516 1011.29C1515.71 1011.64 1515.49 1012.04 1515.34 1012.5C1515.18 1012.96 1515.1 1013.43 1515.1 1013.93C1515.1 1014.44 1515.19 1014.92 1515.36 1015.38C1515.54 1015.84 1515.79 1016.24 1516.1 1016.59C1516.43 1016.94 1516.8 1017.22 1517.21 1017.41C1517.65 1017.61 1518.11 1017.71 1518.6 1017.71C1518.92 1017.71 1519.24 1017.65 1519.56 1017.53C1519.9 1017.41 1520.22 1017.25 1520.52 1017.04C1520.82 1016.83 1521.08 1016.59 1521.29 1016.32C1521.49 1016.03 1521.63 1015.73 1521.7 1015.42ZM1536.49 1019.2C1535.69 1019.2 1534.97 1019 1534.32 1018.61C1533.67 1018.22 1533.15 1017.71 1532.77 1017.08V1019H1531.24V1004.71H1532.97V1010.82C1533.4 1010.15 1533.93 1009.62 1534.55 1009.21C1535.18 1008.81 1535.91 1008.61 1536.74 1008.61C1537.45 1008.61 1538.08 1008.76 1538.64 1009.06C1539.2 1009.34 1539.68 1009.74 1540.07 1010.25C1540.48 1010.75 1540.78 1011.31 1540.99 1011.95C1541.21 1012.58 1541.32 1013.24 1541.32 1013.93C1541.32 1014.65 1541.2 1015.33 1540.95 1015.97C1540.72 1016.59 1540.38 1017.15 1539.94 1017.65C1539.49 1018.13 1538.98 1018.51 1538.39 1018.78C1537.81 1019.06 1537.18 1019.2 1536.49 1019.2ZM1536.06 1017.71C1536.57 1017.71 1537.04 1017.6 1537.47 1017.39C1537.9 1017.19 1538.27 1016.91 1538.58 1016.55C1538.9 1016.2 1539.14 1015.8 1539.31 1015.34C1539.48 1014.88 1539.56 1014.41 1539.56 1013.93C1539.56 1013.26 1539.42 1012.64 1539.13 1012.05C1538.86 1011.46 1538.47 1010.99 1537.96 1010.64C1537.46 1010.28 1536.88 1010.09 1536.22 1010.09C1535.73 1010.09 1535.28 1010.21 1534.87 1010.43C1534.45 1010.65 1534.08 1010.94 1533.75 1011.31C1533.44 1011.66 1533.18 1012.05 1532.97 1012.48V1015.44C1533.03 1015.76 1533.17 1016.06 1533.38 1016.34C1533.59 1016.61 1533.84 1016.85 1534.14 1017.06C1534.44 1017.26 1534.75 1017.41 1535.08 1017.53C1535.42 1017.65 1535.75 1017.71 1536.06 1017.71ZM1543.57 1021.78C1543.73 1021.79 1543.9 1021.8 1544.07 1021.82C1544.24 1021.84 1544.37 1021.86 1544.47 1021.86C1544.67 1021.86 1544.86 1021.79 1545.01 1021.64C1545.17 1021.5 1545.34 1021.22 1545.52 1020.8C1545.72 1020.4 1545.97 1019.8 1546.27 1019L1541.94 1008.78H1543.76L1547.21 1017.26L1550.32 1008.78H1552.02L1547.05 1021.68C1546.93 1021.98 1546.76 1022.26 1546.52 1022.52C1546.3 1022.8 1546.01 1023.01 1545.66 1023.17C1545.31 1023.33 1544.88 1023.4 1544.39 1023.4C1544.27 1023.4 1544.15 1023.4 1544.02 1023.38C1543.9 1023.37 1543.75 1023.34 1543.57 1023.31V1021.78Z" fill="white"/>
<path d="M1443.85 1056.6H1441.92V1052.39C1441.92 1051.79 1441.81 1051.35 1441.6 1051.07C1441.39 1050.8 1441.09 1050.66 1440.72 1050.66C1440.53 1050.66 1440.33 1050.7 1440.13 1050.77C1439.93 1050.85 1439.74 1050.96 1439.56 1051.09C1439.38 1051.23 1439.22 1051.4 1439.08 1051.59C1438.93 1051.78 1438.83 1051.99 1438.76 1052.22V1056.6H1436.83V1049.1H1438.57V1050.49C1438.85 1050.01 1439.25 1049.64 1439.78 1049.37C1440.31 1049.1 1440.91 1048.97 1441.57 1048.97C1442.04 1048.97 1442.43 1049.05 1442.72 1049.22C1443.02 1049.4 1443.25 1049.62 1443.42 1049.9C1443.58 1050.18 1443.69 1050.49 1443.75 1050.84C1443.82 1051.2 1443.85 1051.56 1443.85 1051.92V1056.6H1443.85Z" fill="white"/>
<path d="M1448.66 1056.75C1448.14 1056.75 1447.66 1056.65 1447.22 1056.45C1446.78 1056.25 1446.4 1055.97 1446.08 1055.62C1445.77 1055.26 1445.52 1054.85 1445.34 1054.38C1445.16 1053.9 1445.07 1053.39 1445.07 1052.85C1445.07 1052.31 1445.16 1051.8 1445.33 1051.33C1445.49 1050.86 1445.73 1050.45 1446.02 1050.1C1446.32 1049.75 1446.68 1049.47 1447.09 1049.27C1447.5 1049.07 1447.96 1048.97 1448.45 1048.97C1449 1048.97 1449.51 1049.1 1449.95 1049.37C1450.4 1049.64 1450.75 1049.99 1451 1050.41V1046.15H1452.93V1056.6H1451.38L1451.29 1055.3C1451.01 1055.78 1450.63 1056.14 1450.16 1056.38C1449.68 1056.63 1449.18 1056.75 1448.66 1056.75ZM1449.17 1055.11C1449.35 1055.11 1449.54 1055.08 1449.73 1055.02C1449.92 1054.96 1450.1 1054.87 1450.26 1054.76C1450.43 1054.64 1450.57 1054.51 1450.7 1054.35C1450.83 1054.2 1450.93 1054.04 1451 1053.85V1052.06C1450.92 1051.85 1450.81 1051.66 1450.67 1051.48C1450.53 1051.31 1450.38 1051.15 1450.2 1051.02C1450.02 1050.9 1449.83 1050.79 1449.64 1050.72C1449.44 1050.64 1449.24 1050.6 1449.05 1050.6C1448.76 1050.6 1448.5 1050.66 1448.25 1050.79C1448.01 1050.91 1447.8 1051.08 1447.62 1051.3C1447.45 1051.51 1447.32 1051.76 1447.22 1052.03C1447.12 1052.31 1447.08 1052.6 1447.08 1052.89C1447.08 1053.21 1447.13 1053.5 1447.24 1053.77C1447.34 1054.04 1447.49 1054.27 1447.67 1054.47C1447.85 1054.67 1448.07 1054.83 1448.32 1054.94C1448.58 1055.06 1448.86 1055.11 1449.17 1055.11Z" fill="white"/>
<path d="M1454.83 1056.6V1049.1H1456.76V1056.6H1454.83ZM1455.8 1048.2C1455.63 1048.2 1455.47 1048.17 1455.33 1048.11C1455.19 1048.05 1455.08 1047.97 1454.98 1047.87C1454.88 1047.77 1454.81 1047.65 1454.76 1047.52C1454.71 1047.38 1454.68 1047.25 1454.68 1047.1C1454.68 1046.95 1454.71 1046.81 1454.76 1046.68C1454.81 1046.55 1454.88 1046.43 1454.98 1046.33C1455.08 1046.23 1455.19 1046.15 1455.33 1046.09C1455.47 1046.03 1455.63 1046 1455.8 1046C1455.97 1046 1456.13 1046.03 1456.27 1046.09C1456.4 1046.15 1456.52 1046.23 1456.62 1046.33C1456.71 1046.43 1456.79 1046.55 1456.84 1046.68C1456.89 1046.81 1456.92 1046.95 1456.92 1047.1C1456.92 1047.25 1456.89 1047.38 1456.84 1047.52C1456.79 1047.65 1456.71 1047.77 1456.62 1047.87C1456.52 1047.97 1456.41 1048.05 1456.27 1048.11C1456.13 1048.17 1455.97 1048.2 1455.8 1048.2Z" fill="white"/>
<path d="M1462.01 1056.75C1461.4 1056.75 1460.84 1056.64 1460.35 1056.43C1459.86 1056.22 1459.45 1055.94 1459.11 1055.58C1458.76 1055.22 1458.5 1054.81 1458.32 1054.34C1458.14 1053.87 1458.05 1053.38 1458.05 1052.86C1458.05 1052.34 1458.14 1051.84 1458.32 1051.37C1458.5 1050.91 1458.77 1050.49 1459.11 1050.14C1459.45 1049.78 1459.86 1049.49 1460.35 1049.28C1460.84 1049.07 1461.4 1048.97 1462.01 1048.97C1462.63 1048.97 1463.18 1049.07 1463.66 1049.28C1464.15 1049.49 1464.56 1049.78 1464.9 1050.14C1465.24 1050.49 1465.5 1050.91 1465.69 1051.37C1465.87 1051.84 1465.96 1052.34 1465.96 1052.86C1465.96 1053.38 1465.87 1053.87 1465.69 1054.34C1465.5 1054.81 1465.24 1055.22 1464.91 1055.58C1464.57 1055.94 1464.16 1056.22 1463.67 1056.43C1463.18 1056.64 1462.63 1056.75 1462.01 1056.75ZM1462.01 1050.34C1461.14 1050.34 1459.92 1051.78 1459.92 1053.19C1459.92 1054.32 1460.86 1055.23 1462.01 1055.23C1463.16 1055.23 1464.1 1054.32 1464.1 1053.19C1464.1 1051.78 1462.88 1050.34 1462.01 1050.34Z" fill="white"/>
<path d="M1460.04 1056.6H1458.05V1057.95C1458.05 1057.95 1458.05 1057.96 1458.05 1057.96C1458.05 1057.96 1458.05 1057.96 1458.05 1057.96C1458.05 1058.48 1458.14 1058.97 1458.32 1059.44C1458.5 1059.9 1458.76 1060.32 1459.11 1060.67C1459.45 1061.03 1459.86 1061.32 1460.35 1061.53C1460.84 1061.74 1461.4 1061.84 1462.01 1061.84C1462.63 1061.84 1463.18 1061.74 1463.67 1061.53C1464.16 1061.32 1464.57 1061.03 1464.91 1060.67C1465.24 1060.32 1465.5 1059.9 1465.69 1059.44C1465.87 1058.97 1465.96 1058.48 1465.96 1057.96C1465.96 1057.96 1465.96 1057.96 1465.96 1057.96V1056.6H1463.99V1057.95H1463.99C1463.99 1058.28 1463.94 1058.59 1463.83 1058.86C1463.73 1059.14 1463.59 1059.38 1463.42 1059.58C1463.24 1059.78 1463.03 1059.93 1462.79 1060.04C1462.55 1060.15 1462.29 1060.21 1462.01 1060.21C1461.73 1060.21 1461.47 1060.15 1461.23 1060.04C1460.99 1059.93 1460.78 1059.78 1460.61 1059.58C1460.43 1059.38 1460.29 1059.14 1460.19 1058.87C1460.09 1058.6 1460.04 1058.29 1460.04 1057.96C1460.04 1057.96 1460.04 1057.96 1460.04 1057.96C1460.04 1057.96 1460.04 1057.95 1460.04 1057.95H1460.04V1056.6Z" fill="white"/>
<path d="M1470.97 1056.75C1470.35 1056.75 1469.8 1056.64 1469.31 1056.43C1468.82 1056.22 1468.4 1055.94 1468.06 1055.58C1467.72 1055.22 1467.46 1054.81 1467.28 1054.34C1467.09 1053.87 1467 1053.38 1467 1052.86C1467 1052.34 1467.09 1051.84 1467.28 1051.37C1467.46 1050.91 1467.72 1050.49 1468.06 1050.14C1468.4 1049.78 1468.82 1049.49 1469.31 1049.28C1469.8 1049.07 1470.35 1048.97 1470.97 1048.97C1471.58 1048.97 1472.13 1049.07 1472.62 1049.28C1473.1 1049.49 1473.52 1049.78 1473.86 1050.14C1474.2 1050.49 1474.46 1050.91 1474.64 1051.37C1474.83 1051.84 1474.92 1052.34 1474.92 1052.86C1474.92 1053.38 1474.83 1053.87 1474.64 1054.34C1474.46 1054.81 1474.2 1055.22 1473.86 1055.58C1473.53 1055.94 1473.11 1056.22 1472.62 1056.43C1472.13 1056.64 1471.58 1056.75 1470.97 1056.75ZM1468.99 1052.86C1468.99 1053.2 1469.04 1053.5 1469.14 1053.77C1469.24 1054.05 1469.38 1054.28 1469.56 1054.48C1469.74 1054.68 1469.95 1054.84 1470.19 1054.95C1470.43 1055.06 1470.69 1055.11 1470.97 1055.11C1471.25 1055.11 1471.5 1055.06 1471.75 1054.95C1471.98 1054.84 1472.19 1054.68 1472.37 1054.48C1472.55 1054.28 1472.69 1054.04 1472.79 1053.77C1472.89 1053.49 1472.94 1053.18 1472.94 1052.85C1472.94 1052.53 1472.89 1052.22 1472.79 1051.95C1472.69 1051.67 1472.55 1051.43 1472.37 1051.23C1472.19 1051.03 1471.98 1050.88 1471.75 1050.77C1471.5 1050.66 1471.25 1050.6 1470.97 1050.6C1470.69 1050.6 1470.43 1050.66 1470.19 1050.77C1469.95 1050.89 1469.74 1051.05 1469.56 1051.25C1469.38 1051.45 1469.24 1051.69 1469.14 1051.96C1469.04 1052.24 1468.99 1052.54 1468.99 1052.86Z" fill="white"/>
<path d="M1433.15 1056.6V1049.1H1435.08V1056.6H1433.15ZM1434.12 1048.2C1433.95 1048.2 1433.79 1048.17 1433.65 1048.11C1433.51 1048.05 1433.4 1047.97 1433.3 1047.87C1433.2 1047.77 1433.13 1047.65 1433.08 1047.52C1433.03 1047.38 1433 1047.25 1433 1047.1C1433 1046.95 1433.03 1046.81 1433.08 1046.68C1433.13 1046.55 1433.2 1046.43 1433.3 1046.33C1433.4 1046.23 1433.51 1046.15 1433.65 1046.09C1433.79 1046.03 1433.95 1046 1434.12 1046C1434.29 1046 1434.45 1046.03 1434.58 1046.09C1434.72 1046.15 1434.84 1046.23 1434.93 1046.33C1435.03 1046.43 1435.1 1046.55 1435.16 1046.68C1435.21 1046.81 1435.23 1046.95 1435.23 1047.1C1435.23 1047.25 1435.21 1047.38 1435.16 1047.52C1435.1 1047.65 1435.03 1047.77 1434.94 1047.87C1434.84 1047.97 1434.73 1048.05 1434.59 1048.11C1434.45 1048.17 1434.29 1048.2 1434.12 1048.2Z" fill="white"/>
</g>
<defs>
<clipPath id="clip0_907_32276">
<rect width="1633" height="1154" fill="white"/>
</clipPath>
<clipPath id="clip1_907_32276">
<rect width="1048" height="986" fill="white" transform="translate(2088.68 820) rotate(86.072)"/>
</clipPath>
<clipPath id="clip2_907_32276">
<rect width="1044" height="1241" fill="white" transform="translate(-164.591 -971) rotate(5.10424)"/>
</clipPath>
<clipPath id="clip3_907_32276">
<rect width="1048" height="986" fill="white" transform="translate(1226.84 1034.96) rotate(-89.4701)"/>
</clipPath>
<clipPath id="clip4_907_32276">
<rect width="1044" height="1241" fill="white" transform="translate(-629.591 224) rotate(5.10424)"/>
</clipPath>
</defs>
</svg>
