<svg width="19" height="18" viewBox="0 0 19 18" fill="none" xmlns="http://www.w3.org/2000/svg">
<path fill-rule="evenodd" clip-rule="evenodd" d="M9.16317 16.7134C8.71407 17.1625 7.98593 17.1625 7.53683 16.7134L0.636827 9.81337C0.187723 9.36426 0.187723 8.63612 0.636827 8.18702L7.53683 1.28702C7.98593 0.837919 8.71407 0.837919 9.16317 1.28702C9.61228 1.73613 9.61228 2.46427 9.16317 2.91337L4.22635 7.85019H17.55C18.1851 7.8502 18.7 8.36507 18.7 9.0002C18.7 9.63532 18.1851 10.1502 17.55 10.1502L4.22635 10.1502L9.16317 15.087C9.61228 15.5361 9.61228 16.2643 9.16317 16.7134Z" fill="#5B6676"/>
</svg>
