<svg width="32" height="32" viewBox="0 0 32 32" fill="none" xmlns="http://www.w3.org/2000/svg">
<path fill-rule="evenodd" clip-rule="evenodd" d="M6.86707 6.86853C7.49191 6.24369 8.50497 6.24369 9.12981 6.86853L15.9984 13.7372L22.8671 6.86853C23.4919 6.24369 24.505 6.24369 25.1298 6.86853C25.7546 7.49337 25.7546 8.50643 25.1298 9.13127L18.2612 15.9999L25.1298 22.8685C25.7546 23.4934 25.7546 24.5064 25.1298 25.1313C24.505 25.7561 23.4919 25.7561 22.8671 25.1313L15.9984 18.2626L9.12981 25.1313C8.50497 25.7561 7.49191 25.7561 6.86707 25.1313C6.24223 24.5064 6.24223 23.4934 6.86707 22.8685L13.7357 15.9999L6.86707 9.13127C6.24223 8.50643 6.24223 7.49337 6.86707 6.86853Z" fill="white"/>
</svg>
