<svg width="45" height="40" viewBox="0 0 45 40" fill="none" xmlns="http://www.w3.org/2000/svg">
<path fill-rule="evenodd" clip-rule="evenodd" d="M5.64446 0.258034C2.55167 0.258034 0.0444641 2.76524 0.0444641 5.85803V33.858C0.0444641 36.9508 2.55167 39.458 5.64447 39.458H39.2445C42.3373 39.458 44.8445 36.9508 44.8445 33.858V5.85803C44.8445 2.76524 42.3373 0.258034 39.2445 0.258034H5.64446ZM14.0445 5.85803L30.8445 5.85803V17.058H14.0445V5.85803ZM36.4445 28.258V33.858H39.2445V28.258H36.4445ZM30.8445 22.658H14.0445V33.858H30.8445V22.658ZM36.4445 22.658H39.2445V17.058H36.4445V22.658ZM39.2445 11.458V5.85803H36.4445V11.458H39.2445ZM8.44446 5.85803V11.458H5.64446V5.85803H8.44446ZM8.44446 17.058H5.64446V22.658H8.44446V17.058ZM5.64446 28.258H8.44446V33.858H5.64446V28.258Z" fill="#F5FCFF"/>
</svg>
