<svg width="31" height="31" viewBox="0 0 31 31" fill="none" xmlns="http://www.w3.org/2000/svg">
<path d="M15.4987 6.45842V1.29175L21.957 7.75008L15.4987 14.2084V9.04175C11.2233 9.04175 7.7487 12.5163 7.7487 16.7917C7.7487 21.0672 11.2233 24.5417 15.4987 24.5417C19.7741 24.5417 23.2487 21.0672 23.2487 16.7917H25.832C25.832 22.5009 21.2079 27.1251 15.4987 27.1251C9.78953 27.1251 5.16537 22.5009 5.16537 16.7917C5.16537 11.0826 9.78953 6.45842 15.4987 6.45842Z" fill="#DBDFE5"/>
<path d="M13.9388 19.9167V15.3807H13.3368C13.2318 15.8707 12.7978 16.2207 12.1678 16.2347V16.7177H13.2668V19.9167H13.9388ZM15.7338 17.6487C15.7338 16.9557 15.8598 16.4657 16.1328 16.1787C16.3078 15.9967 16.5318 15.8847 16.8538 15.8847C17.1758 15.8847 17.3998 15.9967 17.5748 16.1787C17.8478 16.4657 17.9738 16.9557 17.9738 17.6487C17.9738 18.3417 17.8478 18.8317 17.5748 19.1187C17.3998 19.3007 17.1758 19.4127 16.8538 19.4127C16.5318 19.4127 16.3078 19.3007 16.1328 19.1187C15.8598 18.8317 15.7338 18.3417 15.7338 17.6487ZM15.0548 17.6487C15.0548 18.2717 15.1598 18.8457 15.4608 19.2937C15.7548 19.7347 16.2098 20.0217 16.8538 20.0217C17.4978 20.0217 17.9528 19.7347 18.2468 19.2937C18.5478 18.8457 18.6528 18.2717 18.6528 17.6487C18.6528 17.0257 18.5478 16.4517 18.2468 16.0037C17.9528 15.5627 17.4978 15.2757 16.8538 15.2757C16.2098 15.2757 15.7548 15.5627 15.4608 16.0037C15.1598 16.4517 15.0548 17.0257 15.0548 17.6487Z" fill="#DBDFE5"/>
</svg>
