<svg width="16" height="16" viewBox="0 0 16 16" fill="none" xmlns="http://www.w3.org/2000/svg">
<path fill-rule="evenodd" clip-rule="evenodd" d="M3 3.13769V6.64586C3 9.67971 4.90597 12.4831 7.99997 14H7.99998H8C11.094 12.4831 13 9.67971 13 6.64586V3.13769C9.90599 1.62077 6.09401 1.62077 3 3.13769Z" fill="#F03A3A"/>
<path d="M9.68154 7.15005V7.7438H8.27522V7.74638C8.11714 7.7463 7.96554 7.68377 7.85371 7.57251C7.74188 7.46125 7.67894 7.31034 7.67871 7.15292V6.55859H9.08474C9.24252 6.55859 9.39389 6.62081 9.50573 6.73165C9.61756 6.84249 9.68078 6.99293 9.68154 7.15005Z" fill="white"/>
<path d="M10.5758 4.42383C10.5758 4.74249 10.4487 5.0481 10.2225 5.27352C9.99632 5.49907 9.68942 5.62594 9.36931 5.62622H8.16192C8.00013 5.63791 7.84125 5.67532 7.69133 5.73701C6.35027 6.03789 5.79803 6.84578 5.44933 7.51568C5.43275 7.39481 5.42439 7.27295 5.42432 7.15096C5.42432 5.65484 6.66045 4.42383 8.16278 4.42383H10.5758Z" fill="white"/>
<path d="M10.5757 9.87855H8.16267C6.78482 9.87855 5.6309 8.84278 5.44922 7.51586C5.79792 6.84596 6.35016 6.03807 7.69208 5.73633C7.37244 5.86764 7.10661 6.10248 6.93759 6.40288C6.76857 6.70328 6.70623 7.05167 6.76065 7.39172C6.81507 7.73177 6.98308 8.0436 7.2375 8.27679C7.49192 8.50997 7.81788 8.65089 8.16267 8.67674H9.37006C9.69028 8.67674 9.99738 8.80342 10.2238 9.02891C10.4502 9.2544 10.5774 9.56023 10.5774 9.87913L10.5757 9.87855Z" fill="white"/>
</svg>
