<svg width="71" height="70" viewBox="0 0 71 70" fill="none" xmlns="http://www.w3.org/2000/svg">
<circle cx="35.5" cy="35" r="35" fill="url(#paint0_linear_12174_28324)"/>
<path fill-rule="evenodd" clip-rule="evenodd" d="M35.5 21C36.6046 21 37.5 21.8954 37.5 23V33H47.5C48.6046 33 49.5 33.8954 49.5 35C49.5 36.1046 48.6046 37 47.5 37H37.5V47C37.5 48.1046 36.6046 49 35.5 49C34.3954 49 33.5 48.1046 33.5 47V37H23.5C22.3954 37 21.5 36.1046 21.5 35C21.5 33.8954 22.3954 33 23.5 33L33.5 33V23C33.5 21.8954 34.3954 21 35.5 21Z" fill="#F4F6F8"/>
<defs>
<linearGradient id="paint0_linear_12174_28324" x1="35.5" y1="0" x2="35.5" y2="70" gradientUnits="userSpaceOnUse">
<stop stop-color="#DFE3E8"/>
<stop offset="1" stop-color="#C4CDD5"/>
</linearGradient>
</defs>
</svg>
