<svg width="63" height="45" viewBox="0 0 63 45" fill="none" xmlns="http://www.w3.org/2000/svg">
<path d="M20.0812 22.2419C23.0509 22.1456 25.8606 20.9577 27.9019 18.9356C29.9433 16.9134 31.052 14.2196 30.9881 11.4375C31.0514 10.0396 30.8191 8.64374 30.3046 7.33016C29.7901 6.01659 29.0034 4.81118 27.9899 3.7832C26.9764 2.75521 25.756 1.92492 24.3987 1.34003C23.0415 0.755144 21.5742 0.427184 20.0812 0.375C18.5849 0.422435 17.1134 0.746905 15.7516 1.32969C14.3898 1.91247 13.1648 2.74203 12.1471 3.7705C11.1294 4.79897 10.3393 6.00599 9.82235 7.32191C9.30537 8.63783 9.07176 10.0366 9.135 11.4375C9.08157 14.2231 10.1991 16.9168 12.2468 18.9379C14.2944 20.959 17.1081 22.1456 20.0812 22.2419ZM20.0812 5.02125C20.9266 5.06792 21.7535 5.27175 22.5138 5.62085C23.2742 5.96995 23.9527 6.45733 24.5098 7.05457C25.0669 7.65181 25.4914 8.34695 25.7586 9.09945C26.0259 9.85195 26.1304 10.6468 26.0662 11.4375C26.121 12.9953 25.5275 14.5122 24.4109 15.668C23.2942 16.8238 21.7419 17.5282 20.0812 17.6325C18.4206 17.5282 16.8683 16.8238 15.7516 15.668C14.635 14.5122 14.0415 12.9953 14.0962 11.4375C14.0321 10.6468 14.1366 9.85195 14.4039 9.09945C14.6711 8.34695 15.0956 7.65181 15.6527 7.05457C16.2098 6.45733 16.8883 5.96995 17.6487 5.62085C18.409 5.27175 19.2359 5.06792 20.0812 5.02125ZM48.3919 23.6431C50.8742 23.5566 53.2193 22.5544 54.9158 20.8551C56.6123 19.1557 57.5226 16.8972 57.4481 14.5719C57.5332 12.2403 56.6277 9.97225 54.9301 8.26491C53.2325 6.55757 50.8813 5.55024 48.3919 5.46375C45.9094 5.55974 43.5683 6.5712 41.8791 8.27749C40.1899 9.98379 39.2897 12.2464 39.375 14.5719C39.3003 16.891 40.2052 19.1442 41.8933 20.8425C43.5814 22.5408 45.9165 23.5471 48.3919 23.6431ZM48.3919 10.0731C49.5725 10.1673 50.6667 10.6911 51.4396 11.5322C52.2125 12.3732 52.6026 13.4645 52.5262 14.5719C52.592 15.6731 52.197 16.7549 51.4252 17.5879C50.6533 18.421 49.5653 18.9396 48.3919 19.0338C47.2114 18.9487 46.1135 18.434 45.3333 17.6C44.5532 16.766 44.1529 15.679 44.2181 14.5719C44.1422 13.4586 44.5376 12.3622 45.3189 11.5201C46.1001 10.678 47.2042 10.1582 48.3919 10.0731ZM48.1163 28.2525C45.7794 28.2453 43.4724 28.7441 41.3755 29.71C39.2785 30.6759 37.4484 32.0827 36.0281 33.8206C34.0886 31.6238 31.6514 29.8587 28.8932 28.6532C26.135 27.4478 23.1249 26.8323 20.0812 26.8513C14.9126 26.7513 9.90932 28.5594 6.15205 31.8849C2.39477 35.2104 0.185011 39.7866 0 44.625H4.92188C5.07564 40.9991 6.75721 37.5781 9.59842 35.1108C12.4396 32.6435 16.209 31.331 20.0812 31.4606C23.9496 31.3311 27.7148 32.6447 30.5497 35.113C33.3847 37.5813 35.0577 41.0024 35.2012 44.625H40.1231C40.1349 42.4912 39.7071 40.3752 38.8631 38.3931C39.6616 36.7266 40.9629 35.3151 42.6069 34.3323C44.251 33.3496 46.166 32.8384 48.1163 32.8619C50.6517 32.7719 53.1222 33.6248 54.9885 35.2345C56.8549 36.8442 57.9656 39.0799 58.0781 41.4538V44.625H63V41.4538C62.8867 37.8576 61.2571 34.4498 58.4679 31.9759C55.6787 29.5019 51.9567 28.1632 48.1163 28.2525Z" fill="#215C7A"/>
</svg>
