
<svg width="16" height="16" viewBox="0 0 16 16" fill="none" xmlns="http://www.w3.org/2000/svg">
<path fill-rule="evenodd" clip-rule="evenodd" d="M14.3996 8.0001C14.3996 11.5347 11.5342 14.4001 7.99961 14.4001C4.46499 14.4001 1.59961 11.5347 1.59961 8.0001C1.59961 4.46548 4.46499 1.6001 7.99961 1.6001C11.5342 1.6001 14.3996 4.46548 14.3996 8.0001ZM8.79961 11.2001C8.79961 11.6419 8.44144 12.0001 7.99961 12.0001C7.55778 12.0001 7.19961 11.6419 7.19961 11.2001C7.19961 10.7583 7.55778 10.4001 7.99961 10.4001C8.44144 10.4001 8.79961 10.7583 8.79961 11.2001ZM7.99961 4.0001C7.55778 4.0001 7.19961 4.35827 7.19961 4.8001V8.0001C7.19961 8.44192 7.55778 8.8001 7.99961 8.8001C8.44144 8.8001 8.79961 8.44192 8.79961 8.0001V4.8001C8.79961 4.35827 8.44144 4.0001 7.99961 4.0001Z" fill="#F03A3A"/>
</svg>
